Event,Sex,Name,State,BodyweightKg,WeightClassKg,Division,Best3SquatKg,Best3BenchKg,Best3DeadliftKg,TotalKg,Equipment,Place
SBD,M,Jeremy Lundgren,SK,133.1,120+,Open,270,175,240,685,Single-ply,1
SBD,M,Eric Melendez-Duke,SK,73.8,74,Juniors,225,132.5,230,587.5,Single-ply,1
SBD,M,Tanner Lepage,SK,103.9,105,Juniors,265,197.5,220,682.5,Single-ply,1
SBD,M,Matthew Reynolds,SK,90.8,93,Sub-Juniors,125,100,175,400,Raw,1
SBD,M,Connor Friesen,SK,85.5,93,Sub-Juniors,125,70,165,360,Raw,2
SBD,M,Dimitri Hadjistarropoulos,SK,70.1,74,Sub-Juniors,165,125,205.5,495.5,Raw,1
SBD,M,Troy Preymack,SK,61.6,66,Sub-Juniors,125,72.5,180,377.5,Raw,1
SBD,M,Mckay Brown,SK,65.8,66,Sub-Juniors,145,75,143,363,Raw,2
SBD,M,Aaron LeMoal,SK,57.4,59,Sub-Juniors,115,90,185,390,Raw,1
SBD,F,Tatiana Thompson,SK,51.9,52,Sub-Juniors,109,35,95,239,Raw,1
SBD,M,Tavis Karnes,SK,90.9,93,Open,187.5,122.5,225,535,Raw,3
SBD,M,Kale Minnema,SK,91.4,93,Open,210,140,255,605,Raw,2
SBD,M,Andreas Boersch,SK,89.2,93,Open,200,105,227.5,532.5,Raw,4
SBD,M,Aaron Ziffle,SK,93,93,Open,235,175,240,650,Raw,1
SBD,F,Theresia Cooper,SK,100.1,84+,Open,145,82.5,165,392.5,Raw,2
SBD,F,Pam Gabruch,SK,84.4,84+,Open,115,65,142.5,322.5,Raw,3
SBD,F,Lindy Grasdal,SK,111.9,84+,Open,102.5,50,140,292.5,Raw,4
SBD,F,Bret Dundas,SK,112.9,84+,Open,186,87.5,175,448.5,Raw,1
SBD,F,Shara Auty,SK,80.6,84,Open,107.5,52.5,115,275,Raw,3
SBD,F,Marianne Marchildon,SK,79.2,84,Open,155,90,177.5,422.5,Raw,1
SBD,F,Heidi Fowler,SK,82.2,84,Open,117.5,80,140,337.5,Raw,2
SBD,F,Erin Sifert,SK,78.1,84,Open,90,47.5,112.5,250,Raw,4
SBD,M,Tyler Wasyluk,SK,82.2,83,Open,202.5,165,257.5,625,Raw,1
SBD,M,Steven Walsh,SK,81.3,83,Open,155,117.5,205,477.5,Raw,3
SBD,M,Landon Noyes,SK,82.4,83,Open,192.5,152.5,225,570,Raw,2
SBD,M,Matthew Rachinski,SK,71.2,74,Open,190,117.5,235,542.5,Raw,1
SBD,M,Jordan Do,SK,71.4,74,Open,132.5,107.5,175,415,Raw,2
SBD,F,Krista Sali,SK,66.8,72,Open,145,60,155,360,Raw,2
SBD,F,Chelsea Schimenosky,SK,69.3,72,Open,97.5,52.5,125,275,Raw,3
SBD,F,Amy Smith,SK,65.4,72,Open,150,82.5,150,382.5,Raw,1
SBD,M,Justin Nguyen,SK,66,66,Open,132.5,120,172.5,425,Raw,1
SBD,F,Milayna Goruick,SK,60.4,63,Open,122.5,67.5,169,359,Raw,1
SBD,F,Michelle Butler,SK,61.7,63,Open,117.5,52.5,117.5,287.5,Raw,4
SBD,F,Li-An Chen,SK,59.1,63,Open,132.5,62.5,155,350,Raw,2
SBD,F,Alicia Stajniak,SK,61.7,63,Open,107.5,57.5,137.5,302.5,Raw,3
SBD,M,Tyler Weiland,SK,134.5,120+,Open,220,130,200,550,Raw,2
SBD,M,Brad Kleefeld,SK,151.9,120+,Open,340,215,300,855,Raw,1
SBD,M,Raymond Hicke,SK,117.5,120,Open,265,177.5,257.5,700,Raw,2
SBD,M,Michael Pols,SK,114.3,120,Open,175,127.5,210,512.5,Raw,3
SBD,M,Dre Grasdal,SK,116.8,120,Open,252.5,170,300,722.5,Raw,1
SBD,M,Stephen Boutilier,SK,95.8,105,Open,192.5,117.5,230,540,Raw,3
SBD,M,Gage Bush,SK,101.9,105,Open,252.5,150,280,682.5,Raw,1
SBD,M,Bryant Westerman,SK,96,105,Open,212.5,147.5,225,585,Raw,2
SBD,M,Aaron Higgins,SK,97.3,105,Open,152.5,95,142.5,390,Raw,4
SBD,M,Dusty Dear,SK,102.3,105,Masters 3,130,90,155,375,Raw,1
SBD,M,Wayne Cormier,SK,91.9,93,Masters 2,160,127.5,170,457.5,Raw,3
SBD,M,Chris Arnold,SK,89.7,93,Masters 2,202.5,122.5,245,570,Raw,1
SBD,M,Blaine Mackie,SK,88.6,93,Masters 2,195,135,215,545,Raw,2
SBD,F,Sandra Nase,SK,105.4,84+,Masters 2,113.5,60,155,328.5,Raw,1
SBD,F,Gwendelyn Grasdal,SK,111.9,84+,Masters 2,97.5,62.5,155,315,Raw,2
SBD,M,Brett Zoerb,SK,80.5,83,Masters 2,193,115,211,519,Raw,1
SBD,M,Michael Martin,SK,111.2,120,Masters 2,195,125,230,550,Raw,2
SBD,M,Kelvin Aitken,SK,117,120,Masters 2,212.5,150,300,662.5,Raw,1
SBD,M,Jeff Rollin,SK,89.7,93,Masters 1,180,143,200,523,Raw,1
SBD,F,Michelle McKeaveney,SK,96.8,84+,Masters 1,102.5,50,137.5,290,Raw,2
SBD,F,Jodi Grills,SK,149.4,84+,Masters 1,92.5,65,157.5,315,Raw,1
SBD,M,Kelly Brown #3,SK,75,83,Masters 1,140,100,190,430,Raw,1
SBD,F,Tanya Haubrich,SK,66.5,72,Masters 1,85,55,112.5,252.5,Raw,1
SBD,M,Collin Pullar,SK,120.6,120+,Masters 1,280,201,267.5,748.5,Raw,1
SBD,M,Dan Milo,SK,100,105,Masters 1,237.5,110,266,613.5,Raw,1
SBD,M,Mathew Palmer,SK,91.7,93,Juniors,217.5,145,250,612.5,Raw,1
SBD,M,Christopher Smith,SK,90.3,93,Juniors,220,137.5,245,602.5,Raw,2
SBD,M,Kyle Oleniuk,SK,80.7,83,Juniors,190,112.5,237.5,540,Raw,1
SBD,M,Corey Blushke,SK,82.6,83,Juniors,147.5,92.5,157,397,Raw,3
SBD,M,Alex Husnik,SK,79.8,83,Juniors,200,122.5,212.5,535,Raw,2
SBD,M,Cameron Preymack,SK,72.9,74,Juniors,210,142.5,252.5,605,Raw,1
SBD,F,Ashley Sepke,SK,71.4,72,Juniors,122.5,62.5,125,310,Raw,1
SBD,M,Brandon Lee,SK,63.9,66,Juniors,170,117.5,195,482.5,Raw,1
SBD,F,Anna Schneider,SK,56.2,57,Juniors,122.5,70.5,142.5,335.5,Raw,1
SBD,M,Evan Shaskin,SK,139.1,120+,Juniors,250,167.5,290.5,708,Raw,1
SBD,M,Nicholas Hadjistavropoulos,SK,98.1,105,Juniors,200,140,217.5,557.5,Raw,1
B,F,Rhaea Stinn,SK,74.6,84,Open,,160.5,,160.5,Single-ply,1
B,M,Marc Morris,SK,81.2,83,Open,,155,,155,Single-ply,1
B,F,Shantelle Szuch,SK,65.9,72,Open,,100,,100,Single-ply,1
B,F,Julie Mushynsky,SK,58.4,63,Open,,75,,75,Single-ply,1
B,M,Tyler Harnett,SK,137.1,120+,Open,,250,,250,Single-ply,2
B,M,Ryan Stinn,SK,144.5,120+,Open,,300,,300,Single-ply,1
B,M,Lucas Tetreault,SK,124.1,120+,Open,,217.5,,217.5,Single-ply,3
B,M,Russell Agnew,SK,117.8,120,Open,,195,,195,Single-ply,1
B,F,Mikayla Lohse,SK,59,63,Juniors,,62.5,,62.5,Single-ply,1
B,M,Tanner Lepage,SK,103.9,105,Juniors,,202.5,,202.5,Single-ply,1
B,F,Ashley Viklund,SK,106,84+,Open,,75,,75,Raw,1
B,M,Erick Lutzko,SK,114.2,120,Open,,167.5,,167.5,Raw,1
B,M,Kohlton Parenteau,SK,103.8,105,Open,,222.5,,222.5,Raw,1
B,M,Randy Wenzel,SK,99.9,105,Masters 2,,148,,148,Raw,1
B,M,Christian Pearce,SK,74,74,Juniors,,137.5,,137.5,Raw,1
