Division,WeightClassKg,Place,Name,Team,BodyweightKg,Best3SquatKg,Best3BenchKg,Best3DeadliftKg,TotalKg,Equipment,Event,Sex
Boys,52,1,Chris Sage,BRYAN,50.26,136.08,68.04,163.29,367.41,Single-ply,SBD,M
Boys,52,2,Daniel Herrera,Navasota,51.71,120.2,86.18,129.27,335.66,Single-ply,SBD,M
Boys,52,3,Osbaldo Esquivel,BRYAN,48.9,90.72,70.31,99.79,260.82,Single-ply,SBD,M
Boys,52,4,Juan Padron,Navasota,51.07,86.18,54.43,117.93,258.55,Single-ply,SBD,M
Boys,52,5,Noel Spurlock,Montgomery,50.08,90.72,43.09,97.52,231.33,Single-ply,SBD,M
Boys,52,6,Nate Colborn,Montgomery,40.19,90.72,36.29,86.18,213.19,Single-ply,SBD,M
Boys,56,1,Taylor Riley,Magnolia,55.7,154.22,92.99,165.56,412.77,Single-ply,SBD,M
Boys,56,2,Dylan Mikus,Magnolia West,54.61,129.27,86.18,145.15,360.61,Single-ply,SBD,M
Boys,56,3,Ian Campbell,Navasota,55.79,131.54,95.25,127.01,353.8,Single-ply,SBD,M
Boys,56,4,Justin Troublefield,Magnolia,55.79,133.81,70.31,147.42,351.53,Single-ply,SBD,M
Boys,56,5,Michael Hushka,Conroe The Woodlands,53.25,90.72,68.04,102.06,260.82,Single-ply,SBD,M
Boys,56,6,Morgan Hicks,Magnolia,53.07,83.91,52.16,92.99,229.06,Single-ply,SBD,M
Boys,60,1,Nick Provost,Conroe The Woodlands,59.6,111.13,58.97,145.15,315.25,Single-ply,SBD,M
Boys,60,2,Nocholas Daigle,WALLER,56.7,102.06,58.97,127.01,288.03,Single-ply,SBD,M
Boys,60,3,Alan Tzul,WALLER,58.33,113.4,45.36,113.4,272.16,Single-ply,SBD,M
Boys,67.5,1,Kenny Bounds,MONTGOMERY,62.69,176.9,113.4,185.97,476.27,Single-ply,SBD,M
Boys,67.5,2,Jordan Baker,HUNTSVILLE,66.5,158.76,104.33,183.7,446.79,Single-ply,SBD,M
Boys,67.5,3,Anthony Salazar,Conroe The Woodlands,65.05,156.49,106.59,181.44,444.52,Single-ply,SBD,M
Boys,67.5,4,Cameron Nava,Magnolia,66.86,149.69,90.72,165.56,405.97,Single-ply,SBD,M
Boys,67.5,5,Kevin Ramos,Navasota,66.41,154.22,95.25,154.22,403.7,Single-ply,SBD,M
Boys,67.5,6,Joan Catalan,TOMBALL,65.59,149.69,88.45,161.03,399.16,Single-ply,SBD,M
Boys,67.5,7,Charlie Reyes,TOMBALL,66.5,142.88,81.65,170.1,394.63,Single-ply,SBD,M
Boys,67.5,8,Calien Lukie,BRYAN,66.95,145.15,81.65,167.83,394.63,Single-ply,SBD,M
Boys,67.5,9,Edgar Benegas,CONROE,61.78,149.69,74.84,165.56,390.09,Single-ply,SBD,M
Boys,67.5,10,Isaiah Reitzel,Magnolia,66.22,142.88,83.91,136.08,362.87,Single-ply,SBD,M
Boys,67.5,11,Chase Gibson,College Station A&M; Cons,63.41,124.74,68.04,127.01,319.78,Single-ply,SBD,M
Boys,67.5,12,Scott Cole,Conroe The Woodlands,66.86,104.33,61.23,120.2,285.76,Single-ply,SBD,M
Boys,67.5,DQ,Jordan Howard,Navasota,64.05,102.06,,,,Single-ply,SBD,M
Boys,75,1,Noah Steptoe,Navasota,70.76,222.26,127.01,199.58,548.85,Single-ply,SBD,M
Boys,75,2,Dillan Roberson,CONROE,73.84,213.19,122.47,201.85,537.51,Single-ply,SBD,M
Boys,75,3,Elvin Martinez,HUNTSVILLE,73.03,208.65,108.86,217.72,535.24,Single-ply,SBD,M
Boys,75,4,Hampton Zarzour,CONROE,74.21,192.78,104.33,179.17,476.27,Single-ply,SBD,M
Boys,75,5,Gabriel Gonzales,Magnolia West,69.4,174.63,97.52,163.29,435.45,Single-ply,SBD,M
Boys,75,6,Austin McDaniel,Magnolia,70.4,170.1,97.52,156.49,424.11,Single-ply,SBD,M
Boys,75,7,Nathan Sigford,Magnolia,74.39,147.42,92.99,181.44,421.84,Single-ply,SBD,M
Boys,75,8,Ryan Rios,Navasota,69.67,161.03,104.33,131.54,396.89,Single-ply,SBD,M
Boys,75,9,Shane Withers,Navasota,73.75,142.88,102.06,149.69,394.63,Single-ply,SBD,M
Boys,75,10,Brock Knighten,TOMBALL,74.84,149.69,83.91,156.49,390.09,Single-ply,SBD,M
Boys,75,11,Alex Loya,Magnolia,73.3,163.29,81.65,129.27,374.21,Single-ply,SBD,M
Boys,75,12,Jacob Willard,Conroe The Woodlands,74.3,133.81,65.77,147.42,347,Single-ply,SBD,M
Boys,75,13,John Cosino,Navasota,72.39,124.74,72.57,136.08,333.39,Single-ply,SBD,M
Boys,75,14,Anthony Shumake,Magnolia,68.95,113.4,79.38,136.08,328.85,Single-ply,SBD,M
Boys,75,15,Payne Gessner,Navasota,69.31,122.47,81.65,117.93,322.05,Single-ply,SBD,M
Boys,75,16,Jorge Molina,Conroe The Woodlands,69.4,106.59,68.04,122.47,297.1,Single-ply,SBD,M
Boys,75,DQ,Ricky Hill,CONROE,71.03,120.2,,136.08,,Single-ply,SBD,M
Boys,82.5,1,Robert Franklin,College Station A&M; Cons,77.11,217.72,127.01,208.65,553.38,Single-ply,SBD,M
Boys,82.5,2,Alevon Holloman,HUNTSVILLE,76.75,204.12,111.13,192.78,508.02,Single-ply,SBD,M
Boys,82.5,3,Walker Holverson,TOMBALL,81.47,192.78,108.86,204.12,505.76,Single-ply,SBD,M
Boys,82.5,4,Leonard Abke,Navasota,77.84,190.51,127.01,185.97,503.49,Single-ply,SBD,M
Boys,82.5,5,Scott Spurlock,MONTGOMERY,79.83,183.7,106.59,199.58,489.88,Single-ply,SBD,M
Boys,82.5,6,Trevor Williams,College Station A&M; Cons,77.66,181.44,111.13,188.24,480.81,Single-ply,SBD,M
Boys,82.5,7,Logan Whitney,Magnolia,82.1,183.7,104.33,183.7,471.74,Single-ply,SBD,M
Boys,82.5,8,Preston Demming,Magnolia West,79.11,140.61,113.4,158.76,412.77,Single-ply,SBD,M
Boys,82.5,9,Jamarcus Cole,HUNTSVILLE,77.84,151.95,83.91,158.76,394.63,Single-ply,SBD,M
Boys,82.5,10,Daniel Gregory,Conroe The Woodlands,78.93,124.74,95.25,158.76,378.75,Single-ply,SBD,M
Boys,82.5,11,James Moore,CONROE,78.47,161.03,77.11,127.01,365.14,Single-ply,SBD,M
Boys,82.5,12,Tyrek Houston,Navasota,82.1,122.47,95.25,131.54,349.27,Single-ply,SBD,M
Boys,82.5,13,Anthony Acosta,Navasota,78.02,122.47,77.11,127.01,326.59,Single-ply,SBD,M
Boys,82.5,14,Juan Villobos,WALLER,80.2,97.52,49.9,104.33,251.74,Single-ply,SBD,M
Boys,82.5,DQ,Jaxson Sewell,Magnolia West,80.2,161.03,92.99,,,Single-ply,SBD,M
Boys,90,1,Uri Lujan,CONROE,88.81,226.8,115.67,208.65,551.11,Single-ply,SBD,M
Boys,90,2,Jason Jasperson,College Station A&M; Cons,89.81,199.58,120.2,215.46,535.24,Single-ply,SBD,M
Boys,90,3,Noah Clarkson,Magnolia West,88,204.12,136.08,192.78,532.97,Single-ply,SBD,M
Boys,90,4,Jake Juranek,TOMBALL,88.81,176.9,124.74,183.7,485.34,Single-ply,SBD,M
Boys,90,5,Kris Smith,HUNTSVILLE,89.45,185.97,106.59,192.78,485.34,Single-ply,SBD,M
Boys,90,6,AJ Johnson,Magnolia,84.82,181.44,102.06,185.97,469.47,Single-ply,SBD,M
Boys,90,7,Connor Conkle,MONTGOMERY,83.19,174.63,99.79,176.9,451.32,Single-ply,SBD,M
Boys,90,8,Royce Gilreath,BRYAN,87.09,149.69,102.06,170.1,421.84,Single-ply,SBD,M
Boys,90,9,Caleb Butler,HUNTSVILLE,85.28,158.76,92.99,158.76,410.5,Single-ply,SBD,M
Boys,90,10,Michael Fedotov,Magnolia,89.36,142.88,79.38,170.1,392.36,Single-ply,SBD,M
Boys,90,11,Trey Neveu,Conroe The Woodlands,83.01,133.81,83.91,172.37,390.09,Single-ply,SBD,M
Boys,90,12,Taylor Ester,TOMBALL,83.1,147.42,83.91,158.76,390.09,Single-ply,SBD,M
Boys,90,13,Dylan Dolenski,WALLER,86.73,147.42,79.38,136.08,362.87,Single-ply,SBD,M
Boys,90,14,Nathan DeJesus,Conroe The Woodlands,83.64,124.74,79.38,149.69,353.8,Single-ply,SBD,M
Boys,90,15,Brendan Callihan,Conroe The Woodlands,88.27,117.93,,117.93,235.87,Single-ply,SD,M
Boys,100,1,Roy Kelley,Conroe,97.16,283.5,129.27,260.82,673.58,Single-ply,SBD,M
Boys,100,2,Cole Wade,Magnolia West,93.17,226.8,124.74,204.12,555.65,Single-ply,SBD,M
Boys,100,3,Logan Clarke,Magnolia West,99.34,204.12,124.74,197.31,526.17,Single-ply,SBD,M
Boys,100,4,Kevin Leonard,College Station A&M; Cons,93.8,199.58,111.13,195.04,505.76,Single-ply,SBD,M
Boys,100,5,Travis Null,CONROE,98.7,201.85,113.4,188.24,503.49,Single-ply,SBD,M
Boys,100,6,Travis Damazio,Magnolia,91.26,188.24,113.4,192.78,494.42,Single-ply,SBD,M
Boys,100,7,Jared Soyring,Magnolia West,98.16,204.12,115.67,172.37,492.15,Single-ply,SBD,M
Boys,100,8,Jose Maravillo,Magnolia,97.07,181.44,108.86,192.78,483.08,Single-ply,SBD,M
Boys,100,9,Zach Marcisz,WALLER,97.79,185.97,102.06,188.24,476.27,Single-ply,SBD,M
Boys,100,10,Owen Lynch,MONTGOMERY,92.71,167.83,113.4,183.7,464.93,Single-ply,SBD,M
Boys,100,11,Zacyary Wallace,MONTGOMERY,91.17,183.7,102.06,170.1,455.86,Single-ply,SBD,M
Boys,100,12,Desmond Doakes,TOMBALL,92.71,163.29,83.91,201.85,449.06,Single-ply,SBD,M
Boys,100,13,Hilario Rodriguez,Navasota,97.07,167.83,99.79,167.83,435.45,Single-ply,SBD,M
Boys,100,14,Corey Hartis,MONTGOMERY,97.52,147.42,111.13,165.56,424.11,Single-ply,SBD,M
Boys,100,15,Jalyen Bell,Bryan,92.71,158.76,81.65,181.44,421.84,Single-ply,SBD,M
Boys,100,16,Chris Massey,HUNTSVILLE,93.89,147.42,97.52,149.69,394.63,Single-ply,SBD,M
Boys,100,17,Gavin Calloway,WALLER,98.43,142.88,86.18,163.29,392.36,Single-ply,SBD,M
Boys,100,18,Adam Charen,CONROE,91.08,147.42,102.06,138.35,387.82,Single-ply,SBD,M
Boys,100,19,Gonzalo Barron,BRYAN,93.26,106.59,72.57,117.93,297.1,Single-ply,SBD,M
Boys,100,20,Angel Juarez,WALLER,90.99,136.08,,158.76,294.84,Single-ply,SD,M
Boys,100,DQ,Cedrick Johnson,BRYAN,93.62,208.65,117.93,,,Single-ply,SBD,M
Boys,110,1,Corey Stang,Magnolia,108.86,235.87,147.42,215.46,598.74,Single-ply,SBD,M
Boys,110,2,Kallen Miller,MONTGOMERY,105.41,197.31,117.93,201.85,517.1,Single-ply,SBD,M
Boys,110,3,Caleb Diehl,TOMBALL,105.69,181.44,129.27,204.12,514.83,Single-ply,SBD,M
Boys,110,4,Dedrick Davis,BRYAN,102.69,195.04,122.47,195.04,512.56,Single-ply,SBD,M
Boys,110,5,Josh Costo,Conroe The Woodlands,100.43,190.51,115.67,174.63,480.81,Single-ply,SBD,M
Boys,110,6,Felipe Alvarado,Navasota,108.68,199.58,99.79,181.44,480.81,Single-ply,SBD,M
Boys,110,7,Blake Hudgens,MONTGOMERY,100.52,181.44,108.86,172.37,462.66,Single-ply,SBD,M
Boys,110,8,Quaid Bohn,Magnolia,107.5,176.9,108.86,136.08,421.84,Single-ply,SBD,M
Boys,110,DQ,Cal Bauer,Navasota,101.97,217.72,,,,Single-ply,SBD,M
Boys,125,1,Dustin Nicholas,HUNTSVILLE,112.67,231.33,117.93,247.21,596.47,Single-ply,SBD,M
Boys,125,2,Tyler Burford,Magnolia West,116.3,231.33,124.74,240.4,596.47,Single-ply,SBD,M
Boys,125,3,Jared Spivey,BRYAN,117.39,226.8,145.15,224.53,596.47,Single-ply,SBD,M
Boys,125,4,Yahir Vargas,TOMBALL,114.03,231.33,142.88,219.99,594.21,Single-ply,SBD,M
Boys,125,5,Joseph Issac,HUNTSVILLE,116.21,226.8,131.54,217.72,576.06,Single-ply,SBD,M
Boys,125,6,Jared Clay,Navasota,114.03,226.8,122.47,204.12,553.38,Single-ply,SBD,M
Boys,125,7,Max Joiner,CONROE,113.49,213.19,127.01,167.83,508.02,Single-ply,SBD,M
Boys,125,8,Kevin Rodriguez,Navasota,117.84,195.04,129.27,181.44,505.76,Single-ply,SBD,M
Boys,125,9,Kyle Herridge,MONTGOMERY,120.11,176.9,92.99,185.97,455.86,Single-ply,SBD,M
Boys,125,10,Daniel Leon,Magnolia,118.84,188.24,102.06,158.76,449.06,Single-ply,SBD,M
Boys,125,11,Andrew Hale,Magnolia,116.12,136.08,102.06,158.76,396.89,Single-ply,SBD,M
Boys,125,DQ,Justin Delgadillio,Navasota,122.02,181.44,,149.69,,Single-ply,SBD,M
Boys,125+,1,Dawson Smith,HUNTSVILLE,130,281.23,181.44,235.87,698.53,Single-ply,SBD,M
Boys,125+,2,Corey Ross,Navasota,128.46,258.55,181.44,215.46,655.44,Single-ply,SBD,M
Boys,125+,3,Stephen Nevarez,Magnolia West,128.28,249.48,147.42,192.78,589.67,Single-ply,SBD,M
Boys,125+,4,Joseph Sols,Magnolia,145.15,219.99,142.88,219.99,582.87,Single-ply,SBD,M
Boys,125+,5,Darius Carter,CONROE,145.51,226.8,142.88,201.85,571.53,Single-ply,SBD,M
Boys,125+,6,Chris Alexander,TOMBALL,129.36,199.58,124.74,183.7,508.02,Single-ply,SBD,M
Boys,125+,7,Mike Davis,HUNTSVILLE,145.6,179.17,113.4,190.51,483.08,Single-ply,SBD,M
