Place,Name,Sex,Event,Division,WeightClassKg,Equipment,BirthYear,Team,State,BodyweightKg,Squat1Kg,Squat2Kg,Squat3Kg,Best3SquatKg,Bench1Kg,Bench2Kg,Bench3Kg,Best3BenchKg,Deadlift1Kg,Deadlift2Kg,Deadlift3Kg,Best3DeadliftKg,TotalKg
1,Anaya Davids,F,SBD,O,44,Single-ply,2003,Neenah Powerlifting,WI,43.70,72.5,-80,-82.5,72.5,25,27.5,-32.5,27.5,72.5,80,-90,80.0,180
1,Delaney Ortiz,F,SBD,O,48,Single-ply,2000,Neenah Powerlifting,WI,46.40,-107.5,107.5,-117.5,107.5,40,42.5,45,45.0,112.5,117.5,-120,117.5,270
2,Noelle Ladwig,F,SBD,O,48,Single-ply,2000,Necedah Powerlifting,WI,46.20,95,100,-102.5,100.0,32.5,37.5,-42.5,37.5,100,107.5,-112.5,107.5,245
3,Cara Martin-Senn,F,SBD,O,48,Single-ply,2000,,WI,46.80,-82.5,82.5,-85,82.5,35,37.5,-40,37.5,85,90,-92.5,90.0,210
1,Mikaela Leibfried,F,SBD,O,52,Single-ply,1999,,WI,50.90,-147.5,147.5,-157.5,147.5,70,75,-80,75.0,130,135,-140,135.0,357.5
2,Ashley Lee,F,SBD,O,52,Single-ply,2001,,WI,51.90,122.5,-127.5,127.5,127.5,52.5,55,-57.5,55.0,132.5,-137.5,-137.5,132.5,315
3,Ally Spang,F,SBD,O,52,Single-ply,2002,,WI,51.80,-105,107.5,112.5,112.5,35,40,-42.5,40.0,115,-122.5,122.5,122.5,275
4,Natalie Weckesser,F,SBD,O,52,Single-ply,2001,Necedah Powerlifting,WI,51.80,102.5,107.5,110,110.0,37.5,40,42.5,42.5,102.5,110,-122.5,110.0,262.5
1,Lauren Freeck,F,SBD,O,56,Single-ply,2001,,WI,55.80,107.5,117.5,-132.5,117.5,55,57.5,60,60.0,147.5,155,-160,155.0,332.5
2,Jennifer Salazar,F,SBD,O,56,Single-ply,2000,,WI,55.10,122.5,130,135,135.0,55,57.5,-60,57.5,122.5,130,135,135.0,327.5
3,Haley Chojnacki,F,SBD,O,56,Single-ply,1999,,WI,55.50,117.5,127.5,135,135.0,50,52.5,-55,52.5,115,122.5,127.5,127.5,315
4,Taylor Wyngaard,F,SBD,O,56,Single-ply,2001,Neenah Powerlifting,WI,53.80,125,-135,-140,125.0,52.5,-57.5,57.5,57.5,110,117.5,127.5,127.5,310
5,Yalena Raya-Mora,F,SBD,O,56,Single-ply,2003,,WI,54.80,97.5,107.5,115,115.0,-40,40,45,45.0,97.5,105,112.5,112.5,272.5
6,Riley Ganther,F,SBD,O,56,Single-ply,2001,Necedah Powerlifting,WI,55.90,102.5,107.5,110,110.0,37.5,40,-42.5,40.0,110,117.5,-125,117.5,267.5
7,Erin Smelcer,F,SBD,O,56,Single-ply,2000,Necedah Powerlifting,WI,55.50,97.5,-105,105,105.0,35,40,-42.5,40.0,102.5,112.5,-122.5,112.5,257.5
1,Machaela Exner,F,SBD,O,60,Single-ply,2001,Necedah Powerlifting,WI,59.00,137.5,150,157.5,157.5,60,62.5,65,65.0,142.5,152.5,155,155.0,377.5
2,Britney Kopp,F,SBD,O,60,Single-ply,2001,,WI,57.00,137.5,145,-152.5,145.0,60,62.5,65,65.0,142.5,-147.5,-147.5,142.5,352.5
3,Kayelyn Hadley,F,SBD,O,60,Single-ply,2002,Necedah Powerlifting,WI,59.50,115,-122.5,122.5,122.5,42.5,45,-47.5,45.0,102.5,110,115,115.0,282.5
4,Madeline Cieczka,F,SBD,O,60,Single-ply,2000,,WI,58.30,110,-115,-115,110.0,35,37.5,42.5,42.5,110,-117.5,120,120.0,272.5
5,Haleigh Calaway,F,SBD,O,60,Single-ply,2002,Neenah Powerlifting,WI,59.10,102.5,110,115,115.0,35,40,-45,40.0,105,-110,110,110.0,265
1,Caitlyn Whipple,F,SBD,O,75,Single-ply,2000,,WI,70.20,182.5,,,182.5,57.5,62.5,65,65.0,-160,165,170,170.0,417.5
2,Abigail Saunders,F,SBD,O,75,Single-ply,2000,Necedah Powerlifting,WI,73.80,170,,,170.0,50,52.5,55,55.0,170,175,180,180.0,405
3,Cloe Winters,F,SBD,O,75,Single-ply,2000,Necedah Powerlifting,WI,74.10,165,,,165.0,52.5,57.5,-60,57.5,160,167.5,-170,167.5,390
4,Kennedy Ketzer,F,SBD,O,75,Single-ply,2000,,WI,72.80,155,,,155.0,55,57.5,60,60.0,145,150,157.5,157.5,372.5
5,Rhonda Peronto,F,SBD,O,75,Single-ply,1999,,WI,71.80,145,,,145.0,60,62.5,65,65.0,135,142.5,147.5,147.5,357.5
6,Sophie Swanson,F,SBD,O,75,Single-ply,2000,,WI,74.10,135,,,135.0,60,65,70,70.0,125,135,-155,135.0,340
7,Isabella Mullally,F,SBD,O,75,Single-ply,2002,Neenah Powerlifting,WI,70.20,147.5,,,147.5,55,60,65,65.0,115,125,-135,125.0,337.5
8,Amanda Nickolai,F,SBD,O,75,Single-ply,2002,Neenah Powerlifting,WI,69.70,132.5,,,132.5,45,50,-52.5,50.0,120,130,-145,130.0,312.5
9,Mckenzie Girard,F,SBD,O,75,Single-ply,2002,,WI,72.40,127.5,,,127.5,52.5,55,57.5,57.5,125,127.5,-132.5,127.5,312.5
10,Alissa Saunders,F,SBD,O,75,Single-ply,2003,Necedah Powerlifting,WI,72.00,117.5,,,117.5,50,52.5,-55,52.5,110,115,-125,115.0,285
1,Danielle Eaglin,F,SBD,O,90,Single-ply,2001,Neenah Powerlifting,WI,89.00,165,175,185,185.0,70,-80,-80,70.0,155,165,170,170.0,425
2,Heidi Colvin,F,SBD,O,90,Single-ply,1999,,WI,83.20,160,172.5,182.5,182.5,57.5,62.5,-67.5,62.5,157.5,167.5,-180,167.5,412.5
3,Madelyn Woychik,F,SBD,O,90,Single-ply,2000,,WI,82.90,137.5,142.5,147.5,147.5,77.5,82.5,85,85.0,147.5,160,-170,160.0,392.5
4,Alexea Engel,F,SBD,O,90,Single-ply,1999,,WI,83.90,150,157.5,165,165.0,52.5,57.5,-62.5,57.5,137.5,-145,-145,137.5,360
5,Victoria Gorski,F,SBD,O,90,Single-ply,2001,,WI,86.70,135,142.5,145,145.0,50,55,-60,55.0,142.5,155,-162.5,155.0,355
6,Makenzie Exner,F,SBD,O,90,Single-ply,2002,Necedah Powerlifting,WI,85.90,135,147.5,-160,147.5,42.5,45,47.5,47.5,147.5,157.5,-162.5,157.5,352.5
7,Maleah Polzin,F,SBD,O,90,Single-ply,2001,,WI,86.80,125,132.5,145,145.0,57.5,62.5,-65,62.5,125,132.5,-137.5,132.5,340
8,Jocabeth Ruel,F,SBD,O,90,Single-ply,2000,,WI,84.80,-125,-125,125,125.0,55,57.5,62.5,62.5,125,130,137.5,137.5,325
1,Kristen Opiela,F,SBD,O,90+,Single-ply,2000,Neenah Powerlifting,WI,107.50,212.5,-227.5,227.5,227.5,77.5,85,87.5,87.5,195,207.5,210,210.0,525
2,Carlie Walker,F,SBD,O,90+,Single-ply,1999,,WI,154.10,200,210,220,220.0,102.5,107.5,110,110.0,180,190,-195,190.0,520
3,Sabrina Servais,F,SBD,O,90+,Single-ply,1999,,WI,108.20,185,192.5,195,195.0,62.5,65,67.5,67.5,147.5,157.5,-162.5,157.5,420
4,Nicole Schmucki,F,SBD,O,90+,Single-ply,1999,,WI,110.40,130,-142.5,142.5,142.5,60,65,70,70.0,155,165,175,175.0,387.5
5,Miranda Adams,F,SBD,O,90+,Single-ply,1999,,WI,126.20,160,-170,-175,160.0,60,65,70,70.0,110,120,137.5,137.5,367.5
6,Miah Slaton,F,SBD,O,90+,Single-ply,2003,Necedah Powerlifting,WI,122.70,162.5,175,182.5,182.5,60,65,-70,65.0,105,117.5,-120,117.5,365
7,Anastasia Texley,F,SBD,O,90+,Single-ply,2000,Necedah Powerlifting,WI,102.30,122.5,-127.5,-137.5,122.5,42.5,47.5,50,50.0,122.5,130,-142.5,130.0,302.5
1,Courtney Corrente,F,SBD,O,67.5,Single-ply,2000,Neenah Powerlifting,WI,61.80,160,-170,175,175.0,60,65,-67.5,65.0,167.5,177.5,-180,177.5,417.5
2,Grace Tollar,F,SBD,O,67.5,Single-ply,2000,Neenah Powerlifting,WI,61.80,125,132.5,140,140.0,55,60,-65,60.0,142.5,-152.5,157.5,157.5,357.5
3,Erin Whipple,F,SBD,O,67.5,Single-ply,2001,,WI,65.60,-147.5,-147.5,147.5,147.5,47.5,50,52.5,52.5,142.5,152.5,-160,152.5,352.5
4,Elizabeth Schuerman,F,SBD,O,67.5,Single-ply,2000,,WI,66.00,132.5,142.5,150,150.0,55,60,-62.5,60.0,132.5,142.5,-150,142.5,352.5
5,Abigail Flora,F,SBD,O,67.5,Single-ply,2001,,WI,60.80,135,147.5,-155,147.5,50,55,-57.5,55.0,130,140,-150,140.0,342.5
6,Abigail Momberg,F,SBD,O,67.5,Single-ply,2000,,WI,65.60,112.5,117.5,125,125.0,55,57.5,62.5,62.5,135,140,147.5,147.5,335
7,Anna Renner,F,SBD,O,67.5,Single-ply,2003,Necedah Powerlifting,WI,65.20,132.5,142.5,147.5,147.5,45,47.5,-50,47.5,120,127.5,137.5,137.5,332.5
8,Reagan Ekstrom,F,SBD,O,67.5,Single-ply,1999,,WI,67.50,107.5,115,-122.5,115.0,52.5,57.5,-60,57.5,137.5,142.5,-150,142.5,315
9,Jamie Regnier,F,SBD,O,67.5,Single-ply,2001,Neenah Powerlifting,WI,61.60,125,-137.5,-137.5,125.0,47.5,-52.5,-52.5,47.5,122.5,130,-135,130.0,302.5
10,Hailey De Guire,F,SBD,O,67.5,Single-ply,2002,Necedah Powerlifting,WI,66.20,122.5,130,-137.5,130.0,42.5,47.5,50,50.0,105,115,120,120.0,300
11,Jasmine Popp,F,SBD,O,67.5,Single-ply,2002,Necedah Powerlifting,WI,64.50,127.5,132.5,142.5,142.5,37.5,40,45,45.0,107.5,-112.5,-112.5,107.5,295
12,Victoria Scurto,F,SBD,O,67.5,Single-ply,1999,,WI,65.60,-120,125,132.5,132.5,37.5,-42.5,42.5,42.5,117.5,-125,-125,117.5,292.5
13,Cheyenne Polack,F,SBD,O,67.5,Single-ply,2002,Necedah Powerlifting,WI,65.20,97.5,102.5,107.5,107.5,40,45,-50,45.0,105,112.5,122.5,122.5,275
DQ,Kelsey Potratz,F,SBD,O,67.5,Single-ply,1999,,WI,67.10,-120,-125,-125,,47.5,-52.5,-55,47.5,-122.5,122.5,-137.5,122.5,
1,Dallas Cavegn,F,SBD,O,82.5,Single-ply,2000,Neenah Powerlifting,WI,78.30,167.5,177.5,-187.5,177.5,75,80,-85,80.0,145,157.5,162.5,162.5,420
2,Geri Fredrickson,F,SBD,O,82.5,Single-ply,2001,,WI,77.60,-167.5,175,185,185.0,62.5,67.5,72.5,72.5,142.5,155,-162.5,155.0,412.5
3,Madelynn Mcfarland,F,SBD,O,82.5,Single-ply,2001,,WI,81.20,160,-165,165,165.0,42.5,45,47.5,47.5,137.5,142.5,147.5,147.5,360
4,Samantha Kristian,F,SBD,O,82.5,Single-ply,2000,Necedah Powerlifting,WI,79.60,147.5,152.5,160,160.0,52.5,57.5,60,60.0,125,132.5,-145,132.5,352.5
5,Adrianna Huarota,F,SBD,O,82.5,Single-ply,2000,,WI,81.00,112.5,117.5,122.5,122.5,42.5,45,-47.5,45.0,122.5,130,-135,130.0,297.5
6,Delilah Burgos,F,SBD,O,82.5,Single-ply,2002,,WI,78.80,102.5,-132.5,-132.5,102.5,47.5,50,52.5,52.5,112.5,120,-145,120.0,275
1,Jessica Mohan,F,SBD,R-O,44,Raw,2001,,WI,43.70,60,67.5,72.5,72.5,35,37.5,40,40.0,60,85,87.5,87.5,200
2,Yadira Ortiz,F,SBD,R-O,44,Raw,2003,,WI,42.00,55,-62.5,62.5,62.5,32.5,35,-37.5,35.0,77.5,85,-95,85.0,182.5
3,Payton Casey,F,SBD,R-O,44,Raw,1999,,WI,43.60,60,-62.5,62.5,62.5,30,32.5,-35,32.5,77.5,82.5,-90,82.5,177.5
4,Isabella Arredondo,F,SBD,R-O,44,Raw,2000,Waterford Union High School,WI,44.00,45,47.5,-52.5,47.5,30,32.5,-35,32.5,72.5,-82.5,82.5,82.5,162.5
1,Jelly Barr,F,SBD,R-O,48,Raw,1999,,WI,48.00,80,85,90,90.0,35,37.5,-40,37.5,100,107.5,-120,107.5,235
2,Caralee Suchomel,F,SBD,R-O,48,Raw,2003,7 Tails Powerlifting,WI,46.50,62.5,70,-75,70.0,45,52.5,55,55.0,90,105,-117.5,105.0,230
3,Hunter Eirschele,F,SBD,R-O,48,Raw,2001,,WI,47.40,67.5,72.5,80,80.0,40,45,-50,45.0,80,95,-100,95.0,220
4,Vanessa Laundrie,F,SBD,R-O,48,Raw,2001,,WI,47.80,72.5,-82.5,82.5,82.5,35,37.5,40,40.0,90,95,-100,95.0,217.5
5,Cyna Madigan,F,SBD,R-O,48,Raw,2002,,WI,47.10,70,75,-77.5,75.0,32.5,37.5,-40,37.5,92.5,100,-105,100.0,212.5
6,Laylue Kue,F,SBD,R-O,48,Raw,2001,,WI,45.90,60,65,-67.5,65.0,32.5,35,-37.5,35.0,-85,85,92.5,92.5,192.5
7,Luanne Schwartz,F,SBD,R-O,48,Raw,1999,,WI,47.70,57.5,62.5,67.5,67.5,32.5,35,-37.5,35.0,75,90,-100,90.0,192.5
8,Caitlin Nachtigal,F,SBD,R-O,48,Raw,2002,,WI,47.60,55,60,62.5,62.5,20,25,30,30.0,75,80,-85,80.0,172.5
9,Izabella Goland,F,SBD,R-O,48,Raw,2001,,WI,46.90,57.5,62.5,-67.5,62.5,32.5,-37.5,37.5,37.5,65,-70,-70,65.0,165
1,Ariel Moris,F,SBD,R-O,52,Raw,2001,,WI,50.90,77.5,82.5,87.5,87.5,45,47.5,50,50.0,107.5,117.5,127.5,127.5,265
2,Mari Stafslien,F,SBD,R-O,52,Raw,2002,,WI,51.60,77.5,85,90,90.0,42.5,45,47.5,47.5,105,115,125,125.0,262.5
3,Olivia Tomasi,F,SBD,R-O,52,Raw,2001,,WI,50.50,80,87.5,-90,87.5,37.5,42.5,45,45.0,102.5,-112.5,112.5,112.5,245
4,Sarah Thorn,F,SBD,R-O,52,Raw,1999,,WI,49.10,67.5,72.5,-75,72.5,37.5,40,-42.5,40.0,-100,100,107.5,107.5,220
5,Kyla Kubera,F,SBD,R-O,52,Raw,2003,,WI,50.60,65,75,77.5,77.5,37.5,42.5,-45,42.5,-87.5,87.5,100,100.0,220
6,Hanna Hollister,F,SBD,R-O,52,Raw,2001,,WI,51.50,67.5,75,-80,75.0,35,40,42.5,42.5,100,-112.5,-112.5,100.0,217.5
7,Karina Frisbie,F,SBD,R-O,52,Raw,2001,,WI,50.90,57.5,-72.5,-72.5,57.5,45,47.5,-52.5,47.5,95,97.5,107.5,107.5,212.5
8,McKenna Ross,F,SBD,R-O,52,Raw,2000,,WI,51.20,62.5,67.5,70,70.0,37.5,40,-42.5,40.0,82.5,90,100,100.0,210
9,Kaylee Streeton,F,SBD,R-O,52,Raw,2002,,WI,50.90,77.5,-82.5,-82.5,77.5,37.5,40,-42.5,40.0,87.5,90,-95,90.0,207.5
10,Alyssa Jodarski,F,SBD,R-O,52,Raw,2000,,WI,51.60,-70,-70,70,70.0,35,-40,-40,35.0,97.5,-102.5,-102.5,97.5,202.5
11,Emily Freagon,F,SBD,R-O,52,Raw,2002,,WI,51.10,60,67.5,75,75.0,37.5,40,-42.5,40.0,77.5,85,-95,85.0,200
DQ,Maria Horvath,F,SBD,R-O,52,Raw,2002,,WI,51.70,70,75,77.5,77.5,37.5,40,-45,40.0,-92.5,-92.5,-92.5,,
1,Kenzie Svoboda,F,SBD,R-O,56,Raw,2000,,WI,55.60,105,-110,-110,105.0,57.5,62.5,-65,62.5,127.5,132.5,137.5,137.5,305
2,Anna Delao,F,SBD,R-O,56,Raw,2000,,WI,55.90,87.5,95,105,105.0,50,55,-57.5,55.0,122.5,-132.5,-132.5,122.5,282.5
3,Alannah Burke,F,SBD,R-O,56,Raw,2000,,WI,54.30,85,90,-95,90.0,45,47.5,-50,47.5,127.5,132.5,135,135.0,272.5
4,Stephanie Sowin,F,SBD,R-O,56,Raw,1999,,WI,53.60,95,-97.5,100,100.0,42.5,45,-47.5,45.0,115,120,125,125.0,270
5,Anna Maramonte,F,SBD,R-O,56,Raw,2000,,WI,54.20,90,92.5,95,95.0,42.5,-47.5,-47.5,42.5,-115,117.5,122.5,122.5,260
6,Anastasia McCourt,F,SBD,R-O,56,Raw,2001,,WI,54.00,-85,85,-90,85.0,47.5,50,-52.5,50.0,112.5,117.5,-122.5,117.5,252.5
7,Ellen Mills,F,SBD,R-O,56,Raw,1999,,WI,55.40,75,82.5,-90,82.5,45,47.5,-50,47.5,-120,120,-132.5,120.0,250
8,Ashley Sullivan,F,SBD,R-O,56,Raw,1999,,WI,54.00,82.5,87.5,-92.5,87.5,37.5,42.5,-45,42.5,105,107.5,-112.5,107.5,237.5
9,Jaclyn Sullivan,F,SBD,R-O,56,Raw,1999,,WI,55.40,-87.5,-87.5,87.5,87.5,42.5,-45,-45,42.5,-105,105,107.5,107.5,237.5
10,Clare Hallum,F,SBD,R-O,56,Raw,2002,,WI,54.80,82.5,87.5,-92.5,87.5,37.5,42.5,-45,42.5,97.5,105,-115,105.0,235
11,Grace Garner,F,SBD,R-O,56,Raw,2001,,WI,54.70,-85,-95,95,95.0,-40,40,-47.5,40.0,87.5,-95,-95,87.5,222.5
12,Bailey Gilbertson,F,SBD,R-O,56,Raw,2003,,WI,54.10,67.5,72.5,77.5,77.5,30,32.5,-35,32.5,-102.5,107.5,-115,107.5,217.5
DQ,Megan Bakalars,F,SBD,R-O,56,Raw,2000,,WI,55.40,-105,-105,-105,,45,47.5,55,55.0,105,117.5,127.5,127.5,
1,Hannah Slater,F,SBD,R-O,60,Raw,2000,,WI,59.60,117.5,-125,125,125.0,55,57.5,-60,57.5,125,130,137.5,137.5,320
2,Jamie Hernandez,F,SBD,R-O,60,Raw,2000,Necedah Powerlifting,WI,59.00,107.5,-112.5,-112.5,107.5,52.5,55,-57.5,55.0,120,127.5,-130,127.5,290
3,Shyla Dake,F,SBD,R-O,60,Raw,2000,,WI,60.00,87.5,97.5,100,100.0,52.5,-57.5,57.5,57.5,120,125,130,130.0,287.5
4,Clara Yoap,F,SBD,R-O,60,Raw,2000,,WI,59.00,82.5,-92.5,97.5,97.5,47.5,55,60,60.0,115,125,-132.5,125.0,282.5
5,Laura Schlee,F,SBD,R-O,60,Raw,1999,,WI,58.70,87.5,102.5,-105,102.5,50,55,-57.5,55.0,102.5,112.5,120,120.0,277.5
6,Anna Sackett,F,SBD,R-O,60,Raw,2001,,WI,58.80,92.5,-102.5,-107.5,92.5,50,57.5,60,60.0,102.5,115,120,120.0,272.5
7,Francesca Sokolik,F,SBD,R-O,60,Raw,2000,,WI,59.20,87.5,92.5,-95,92.5,47.5,50,-52.5,50.0,130,-135,-137.5,130.0,272.5
8,Elizabeth Meyer,F,SBD,R-O,60,Raw,2002,,WI,60.00,82.5,87.5,92.5,92.5,42.5,45,-47.5,45.0,112.5,117.5,125,125.0,262.5
9,Taylor Van De Hey,F,SBD,R-O,60,Raw,2002,,WI,59.20,82.5,87.5,-90,87.5,40,42.5,-45,42.5,112.5,120,130,130.0,260
10,Jesi Burds,F,SBD,R-O,60,Raw,2001,,WI,58.00,80,95,100,100.0,42.5,-47.5,-47.5,42.5,90,100,115,115.0,257.5
11,Carleigh Roettger,F,SBD,R-O,60,Raw,2000,,WI,56.80,72.5,82.5,-87.5,82.5,42.5,47.5,-50,47.5,115,125,-127.5,125.0,255
12,Ashton Miller,F,SBD,R-O,60,Raw,2002,,WI,58.50,-87.5,92.5,97.5,97.5,50,55,-57.5,55.0,95,102.5,-110,102.5,255
13,Cailey Erickson,F,SBD,R-O,60,Raw,1999,,WI,59.20,65,72.5,82.5,82.5,45,50,-55,50.0,90,100,112.5,112.5,245
14,Kenzie Meitner,F,SBD,R-O,60,Raw,2001,,WI,58.60,75,82.5,87.5,87.5,55,-57.5,-57.5,55.0,100,-115,-117.5,100.0,242.5
15,Allyson Wolf,F,SBD,R-O,60,Raw,2002,,WI,59.50,77.5,-85,-85,77.5,40,45,50,50.0,100,107.5,112.5,112.5,240
16,Danielle Wagner,F,SBD,R-O,60,Raw,2002,,WI,60.00,87.5,95,-102.5,95.0,42.5,-45,-45,42.5,102.5,-107.5,-107.5,102.5,240
17,Olivia Voltner,F,SBD,R-O,60,Raw,2002,,WI,59.90,75,80,-82.5,80.0,42.5,45,-47.5,45.0,105,112.5,-115,112.5,237.5
18,Brynn Zwiefelhofer,F,SBD,R-O,60,Raw,2001,,WI,57.50,60,-70,75,75.0,37.5,40,-42.5,40.0,90,102.5,117.5,117.5,232.5
19,Megan Van Ruiswyk,F,SBD,R-O,60,Raw,2000,,WI,59.10,65,70,75,75.0,42.5,45,-47.5,45.0,102.5,112.5,-120,112.5,232.5
20,Victoria Fox,F,SBD,R-O,60,Raw,2000,,WI,59.40,75,80,85,85.0,35,37.5,-40,37.5,102.5,107.5,110,110.0,232.5
21,Elly Bjork,F,SBD,R-O,60,Raw,2001,,WI,59.90,60,70,-75,70.0,42.5,-47.5,47.5,47.5,102.5,112.5,-117.5,112.5,230
22,Rachel Nelson,F,SBD,R-O,60,Raw,2001,,WI,57.60,67.5,72.5,-77.5,72.5,37.5,40,-42.5,40.0,102.5,110,115,115.0,227.5
23,Adrianna Jacobson,F,SBD,R-O,60,Raw,2000,,WI,58.80,65,75,-82.5,75.0,37.5,42.5,-45,42.5,105,110,-112.5,110.0,227.5
24,Taja John,F,SBD,R-O,60,Raw,2000,,WI,58.40,72.5,-77.5,-87.5,72.5,37.5,42.5,-52.5,42.5,85,92.5,110,110.0,225
25,Kayla Patterson,F,SBD,R-O,60,Raw,2000,,WI,59.40,-67.5,-67.5,67.5,67.5,37.5,-42.5,-42.5,37.5,117.5,-130,-137.5,117.5,222.5
26,Sira Shepard,F,SBD,R-O,60,Raw,2000,,WI,56.20,72.5,-77.5,-82.5,72.5,42.5,45,47.5,47.5,95,-107.5,-115,95.0,215
1,Brenna Zuehlke,F,SBD,R-O,75,Raw,2000,,WI,70.60,-122.5,122.5,130,130.0,62.5,67.5,70,70.0,130,145,150,150.0,350
2,Miranda Koehnke,F,SBD,R-O,75,Raw,2001,,WI,70.50,120,122.5,125,125.0,60,-62.5,-67.5,60.0,137.5,142.5,147.5,147.5,332.5
3,Cheyenne Banasik,F,SBD,R-O,75,Raw,1999,,WI,74.50,102.5,105,107.5,107.5,57.5,62.5,-65,62.5,150,157.5,-165,157.5,327.5
4,Scout Zinniel,F,SBD,R-O,75,Raw,2000,,WI,70.30,97.5,-102.5,-102.5,97.5,50,52.5,-55,52.5,152.5,157.5,-165,157.5,307.5
5,Skyler Ross,F,SBD,R-O,75,Raw,2001,,WI,70.60,97.5,105,115,115.0,47.5,52.5,55,55.0,127.5,137.5,-145,137.5,307.5
6,Kyla Egan,F,SBD,R-O,75,Raw,2000,,WI,72.60,97.5,100,105,105.0,-52.5,52.5,55,55.0,135,142.5,-150,142.5,302.5
7,Somer Nolte,F,SBD,R-O,75,Raw,2002,Necedah Powerlifting,WI,72.80,112.5,-117.5,-117.5,112.5,57.5,60,62.5,62.5,115,120,127.5,127.5,302.5
8,Madeline Jenson,F,SBD,R-O,75,Raw,2000,,WI,69.80,102.5,107.5,-110,107.5,57.5,-62.5,-62.5,57.5,-125,125,-130,125.0,290
9,Abagayle Kasper,F,SBD,R-O,75,Raw,2001,,WI,70.30,80,87.5,92.5,92.5,55,-60,-60,55.0,115,132.5,140,140.0,287.5
10,Jasmine Ganey,F,SBD,R-O,75,Raw,1999,,WI,72.50,102.5,110,117.5,117.5,40,42.5,-50,42.5,115,127.5,-135,127.5,287.5
11,Nadine Alberg,F,SBD,R-O,75,Raw,2000,Neenah Powerlifting,WI,71.20,87.5,97.5,107.5,107.5,52.5,57.5,-60,57.5,107.5,117.5,-125,117.5,282.5
12,Nicole Heller,F,SBD,R-O,75,Raw,2000,,WI,73.80,102.5,-107.5,-107.5,102.5,47.5,-50,50,50.0,120,130,-137.5,130.0,282.5
13,Taylor Borchardt,F,SBD,R-O,75,Raw,2001,,WI,70.00,100,105,-110,105.0,47.5,-52.5,-52.5,47.5,120,127.5,-137.5,127.5,280
14,Rebecca Lee,F,SBD,R-O,75,Raw,2000,,WI,70.70,87.5,92.5,97.5,97.5,42.5,47.5,-52.5,47.5,115,122.5,132.5,132.5,277.5
15,Alexis Leverty,F,SBD,R-O,75,Raw,2000,,WI,69.10,-90,90,100,100.0,42.5,45,47.5,47.5,112.5,117.5,125,125.0,272.5
16,Michelle Steffens,F,SBD,R-O,75,Raw,2000,,WI,74.50,97.5,105,-110,105.0,35,37.5,42.5,42.5,125,-135,-135,125.0,272.5
17,Emma Scott,F,SBD,R-O,75,Raw,2002,,WI,72.20,87.5,92.5,-97.5,92.5,52.5,-55,-55,52.5,-125,125,-137.5,125.0,270
18,Macie Schlegel,F,SBD,R-O,75,Raw,2002,Neenah Powerlifting,WI,72.60,85,92.5,-97.5,92.5,40,42.5,-45,42.5,112.5,120,130,130.0,265
19,Chloe Peterson,F,SBD,R-O,75,Raw,2000,,WI,73.90,85,92.5,97.5,97.5,42.5,45,47.5,47.5,110,117.5,-125,117.5,262.5
20,Nadia Meyerhofer,F,SBD,R-O,75,Raw,2001,,WI,70.50,75,82.5,-87.5,82.5,52.5,57.5,-65,57.5,112.5,120,-130,120.0,260
21,Alana Feser,F,SBD,R-O,75,Raw,2001,,WI,73.40,90,95,-97.5,95.0,47.5,50,52.5,52.5,102.5,112.5,-122.5,112.5,260
22,Cabria Zuehlke,F,SBD,R-O,75,Raw,2003,,WI,68.40,77.5,87.5,-92.5,87.5,-47.5,47.5,-52.5,47.5,-120,120,-137.5,120.0,255
23,Sierra Smith,F,SBD,R-O,75,Raw,2003,Neenah Powerlifting,WI,71.10,82.5,90,-92.5,90.0,42.5,-47.5,-47.5,42.5,115,-122.5,122.5,122.5,255
24,Samantha Morgen,F,SBD,R-O,75,Raw,2002,,WI,70.20,82.5,90,-95,90.0,40,-45,-45,40.0,115,-122.5,-122.5,115.0,245
DQ,Nicole Paulson,F,SBD,R-O,75,Raw,2003,,WI,68.30,-95,-95,-95,,42.5,45,-47.5,45.0,-122.5,122.5,132.5,132.5,
1,Abbi Stafslien-Dumale,F,SBD,R-O,90,Raw,2000,,WI,86.90,155,160,165,165.0,72.5,77.5,80,80.0,160,170,180,180.0,425
2,Sydney Krueger,F,SBD,R-O,90,Raw,2002,,WI,83.50,115,125,140,140.0,-52.5,57.5,62.5,62.5,142.5,152.5,157.5,157.5,360
3,Julia Murphy,F,SBD,R-O,90,Raw,2001,,WI,83.50,127.5,135,-142.5,135.0,62.5,65,67.5,67.5,130,137.5,142.5,142.5,345
4,Shelby Lewis,F,SBD,R-O,90,Raw,2000,,WI,88.90,115,122.5,-130,122.5,62.5,67.5,-72.5,67.5,137.5,145,155,155.0,345
5,Sierra Keyes,F,SBD,R-O,90,Raw,1999,,WI,87.60,110,117.5,-122.5,117.5,62.5,67.5,70,70.0,127.5,137.5,140,140.0,327.5
6,Sophia Zakhar,F,SBD,R-O,90,Raw,2000,,WI,87.80,130,137.5,142.5,142.5,57.5,62.5,-67.5,62.5,110,122.5,-135,122.5,327.5
7,Marie Haase,F,SBD,R-O,90,Raw,2000,,WI,82.90,-100,100,105,105.0,50,-55,-55,50.0,147.5,157.5,-172.5,157.5,312.5
8,Laura White,F,SBD,R-O,90,Raw,2000,,WI,87.80,-112.5,112.5,-115,112.5,50,55,60,60.0,107.5,115,120,120.0,292.5
9,Riley Schroeder,F,SBD,R-O,90,Raw,2000,,WI,87.20,87.5,-90,90,90.0,52.5,-55,55,55.0,130,135,140,140.0,285
10,Hannah Minke,F,SBD,R-O,90,Raw,2000,,WI,83.70,110,-115,-115,110.0,45,50,-52.5,50.0,117.5,122.5,-127.5,122.5,282.5
11,Ariel Schaefer,F,SBD,R-O,90,Raw,1999,,WI,88.50,97.5,105,107.5,107.5,40,45,47.5,47.5,107.5,112.5,120,120.0,275
12,Alayna Corbisier,F,SBD,R-O,90,Raw,2002,,WI,88.60,85,90,-97.5,90.0,35,40,42.5,42.5,120,127.5,-137.5,127.5,260
13,Sophia Donovan,F,SBD,R-O,90,Raw,2000,,WI,89.90,102.5,-112.5,-115,102.5,42.5,47.5,52.5,52.5,105,-115,-115,105.0,260
14,Shilo Graese,F,SBD,R-O,90,Raw,2001,,WI,85.00,85,92.5,-100,92.5,40,42.5,-47.5,42.5,105,112.5,-135,112.5,247.5
1,Hailee Markey,F,SBD,R-O,90+,Raw,2000,,WI,115.00,150,160,170,170.0,67.5,72.5,75,75.0,162.5,175,187.5,187.5,432.5
2,Miranda Rueter,F,SBD,R-O,90+,Raw,2000,,WI,132.20,145,-152.5,-152.5,145.0,85,90,92.5,92.5,-147.5,155,157.5,157.5,395
3,Sydney Regan,F,SBD,R-O,90+,Raw,2002,,WI,116.10,132.5,142.5,152.5,152.5,57.5,60,-62.5,60.0,155,162.5,-182.5,162.5,375
4,Hailey Durand-Christianson,F,SBD,R-O,90+,Raw,1999,,WI,98.70,112.5,125,140,140.0,65,72.5,75,75.0,135,-145,145,145.0,360
5,Abbigayle Herman,F,SBD,R-O,90+,Raw,2000,,WI,105.80,125,135,-142.5,135.0,60,62.5,65,65.0,135,155,-162.5,155.0,355
6,Makayla Mattson,F,SBD,R-O,90+,Raw,1999,,WI,120.30,-110,110,-125,110.0,65,70,77.5,77.5,132.5,137.5,-147.5,137.5,325
7,Alexis Lee,F,SBD,R-O,90+,Raw,2001,,WI,107.90,-120,-120,120,120.0,55,-57.5,-57.5,55.0,-137.5,137.5,-142.5,137.5,312.5
8,Courtney Humphrey,F,SBD,R-O,90+,Raw,1999,,WI,103.40,-100,105,-115,105.0,50,55,62.5,62.5,127.5,-137.5,140,140.0,307.5
9,Elvecia Najera,F,SBD,R-O,90+,Raw,2001,,WI,125.00,97.5,102.5,110,110.0,50,55,-60,55.0,137.5,-145,-147.5,137.5,302.5
10,Delaney Shortreed,F,SBD,R-O,90+,Raw,2001,,WI,125.50,-112.5,-112.5,112.5,112.5,47.5,52.5,-57.5,52.5,120,130,-145,130.0,295
11,Erin DeLong,F,SBD,R-O,90+,Raw,2000,,WI,94.00,97.5,107.5,-115,107.5,57.5,60,-62.5,60.0,110,115,125,125.0,292.5
12,Cora Bibeau,F,SBD,R-O,90+,Raw,2000,,WI,115.10,102.5,117.5,-127.5,117.5,42.5,47.5,-52.5,47.5,115,125,-135,125.0,290
13,Camille Cieszynski,F,SBD,R-O,90+,Raw,2000,,WI,105.70,102.5,110,117.5,117.5,52.5,-57.5,57.5,57.5,105,112.5,-120,112.5,287.5
14,Dayzharay Rhodes,F,SBD,R-O,90+,Raw,2001,,WI,105.50,102.5,110,-120,110.0,55,60,-62.5,60.0,-115,-115,115,115.0,285
15,Allison Tuschl,F,SBD,R-O,90+,Raw,2000,,WI,99.50,80,90,97.5,97.5,47.5,52.5,-60,52.5,115,127.5,132.5,132.5,282.5
16,Hannah Chart,F,SBD,R-O,90+,Raw,2001,Waterford Union High School,WI,113.20,100,102.5,107.5,107.5,45,47.5,50,50.0,122.5,-125,-127.5,122.5,280
17,Savannah Tunks,F,SBD,R-O,90+,Raw,2000,,WI,114.70,-105,105,107.5,107.5,50,52.5,-55,52.5,105,117.5,-137.5,117.5,277.5
18,Jenna Morris,F,SBD,R-O,90+,Raw,2003,,WI,114.80,92.5,97.5,-100,97.5,47.5,50,52.5,52.5,-122.5,122.5,-127.5,122.5,272.5
19,Sydney Herrick,F,SBD,R-O,90+,Raw,2002,,WI,107.30,80,90,97.5,97.5,42.5,47.5,-52.5,47.5,115,125,-130,125.0,270
20,Tiffany Hatfield,F,SBD,R-O,90+,Raw,2002,,WI,130.20,82.5,105,-112.5,105.0,37.5,42.5,50,50.0,110,115,-122.5,115.0,270
DQ,Ava Rozumalski,F,SBD,R-O,90+,Raw,2002,,WI,101.80,92.5,97.5,-102.5,97.5,-62.5,-62.5,-62.5,,105,112.5,120,120.0,
DQ,Coryn Davidson,F,SBD,R-O,90+,Raw,2001,,WI,117.80,-120,-130,-135,,60,-65,-65,60.0,155,-170,-182.5,155.0,
DQ,Katy Zimmerman,F,SBD,R-O,90+,Raw,2000,,WI,125.90,165,-172.5,-172.5,165.0,-80,82.5,85,85.0,-135,-135,-135,,
1,Allison Lindquist,F,SBD,R-O,67.5,Raw,2000,,WI,66.10,130,-137.5,-137.5,130.0,57.5,60,-62.5,60.0,147.5,152.5,-157.5,152.5,342.5
2,Sophia Becerra,F,SBD,R-O,67.5,Raw,2000,Necedah Powerlifting,WI,67.30,110,115,122.5,122.5,52.5,57.5,-60,57.5,122.5,135,145,145.0,325
3,Elena Marquez,F,SBD,R-O,67.5,Raw,2001,Necedah Powerlifting,WI,66.50,125,-130,130,130.0,52.5,57.5,-60,57.5,122.5,132.5,135,135.0,322.5
4,Jordan Braund,F,SBD,R-O,67.5,Raw,2002,,WI,62.30,110,-120,120,120.0,55,57.5,-62.5,57.5,125,135,-145,135.0,312.5
5,Anna Cernohous,F,SBD,R-O,67.5,Raw,2000,,WI,63.30,107.5,-115,115,115.0,57.5,60,-62.5,60.0,120,130,-132.5,130.0,305
6,Lydia Anderson,F,SBD,R-O,67.5,Raw,2000,,WI,63.60,107.5,115,122.5,122.5,50,52.5,-55,52.5,110,117.5,125,125.0,300
7,Kaylee Patnode,F,SBD,R-O,67.5,Raw,2000,,WI,66.10,-102.5,102.5,-110,102.5,42.5,47.5,-52.5,47.5,125,137.5,-152.5,137.5,287.5
8,Leah Underwood,F,SBD,R-O,67.5,Raw,1999,,WI,66.00,90,100,-110,100.0,40,45,-50,45.0,127.5,137.5,-145,137.5,282.5
9,Kortnee Halgren,F,SBD,R-O,67.5,Raw,2001,,WI,66.30,-92.5,92.5,102.5,102.5,42.5,45,47.5,47.5,122.5,132.5,-142.5,132.5,282.5
10,Hannah Jensen,F,SBD,R-O,67.5,Raw,2001,,WI,66.30,92.5,97.5,105,105.0,42.5,45,-52.5,45.0,127.5,-132.5,132.5,132.5,282.5
11,Aurora Waite,F,SBD,R-O,67.5,Raw,2000,,WI,65.70,-102.5,105,-117.5,105.0,45,50,-52.5,50.0,102.5,115,125,125.0,280
12,Olivia Pappadopoulos,F,SBD,R-O,67.5,Raw,2001,,WI,62.70,75,82.5,87.5,87.5,-47.5,52.5,-57.5,52.5,105,125,130,130.0,270
13,Hannah Cynor,F,SBD,R-O,67.5,Raw,2000,,WI,65.10,-87.5,-92.5,92.5,92.5,50,55,-57.5,55.0,102.5,112.5,122.5,122.5,270
14,Sarah Loether,F,SBD,R-O,67.5,Raw,2001,,WI,62.70,82.5,90,-95,90.0,50,-55,-55,50.0,115,127.5,-142.5,127.5,267.5
15,Aliya Brown,F,SBD,R-O,67.5,Raw,1999,,WI,62.90,72.5,95,102.5,102.5,55,60,62.5,62.5,87.5,102.5,-112.5,102.5,267.5
16,Amanda Sahm,F,SBD,R-O,67.5,Raw,2001,,WI,65.80,100,-107.5,-107.5,100.0,50,-52.5,-52.5,50.0,110,115,-122.5,115.0,265
17,Kristi Nagler,F,SBD,R-O,67.5,Raw,2000,,WI,65.80,80,95,-97.5,95.0,52.5,57.5,62.5,62.5,92.5,105,-115,105.0,262.5
18,Nevaeh Brewer,F,SBD,R-O,67.5,Raw,2001,,WI,64.90,87.5,92.5,-97.5,92.5,42.5,-47.5,-47.5,42.5,115,122.5,-127.5,122.5,257.5
19,Abigale Modesette,F,SBD,R-O,67.5,Raw,2001,,WI,64.50,85,90,-92.5,90.0,35,37.5,42.5,42.5,117.5,122.5,-130,122.5,255
20,Alexis Snider,F,SBD,R-O,67.5,Raw,2001,,WI,64.70,80,87.5,92.5,92.5,40,-45,-45,40.0,102.5,112.5,122.5,122.5,255
21,Kenlee Mathews,F,SBD,R-O,67.5,Raw,2002,,WI,64.10,85,-90,-90,85.0,40,45,-47.5,45.0,105,117.5,-122.5,117.5,247.5
22,Kaysie Smith,F,SBD,R-O,67.5,Raw,2001,,WI,67.00,97.5,-102.5,-102.5,97.5,37.5,-40,-40,37.5,110,-115,-115,110.0,245
23,Adriana Domenech,F,SBD,R-O,67.5,Raw,2002,,WI,62.50,77.5,-87.5,-92.5,77.5,37.5,-42.5,-42.5,37.5,117.5,125,-130,125.0,240
1,Lexxie Barr,F,SBD,R-O,82.5,Raw,1999,,WI,78.10,145,,,145.0,52.5,55,57.5,57.5,137.5,150,155,155.0,357.5
2,Jessica Kinney,F,SBD,R-O,82.5,Raw,2000,,WI,79.60,137.5,,,137.5,65,67.5,-70,67.5,115,120,127.5,127.5,332.5
3,Emily Nickolai,F,SBD,R-O,82.5,Raw,1999,Neenah Powerlifting,WI,79.80,120,,,120.0,57.5,60,62.5,62.5,125,135,142.5,142.5,325
4,Haley Harms,F,SBD,R-O,82.5,Raw,2000,,WI,82.30,125,,,125.0,60,65,67.5,67.5,115,127.5,132.5,132.5,325
5,Kyla Hatzenbeler,F,SBD,R-O,82.5,Raw,2000,,WI,78.20,122.5,,,122.5,55,60,62.5,62.5,125,135,-140,135.0,320
6,Brianne Wilson,F,SBD,R-O,82.5,Raw,2002,Necedah Powerlifting,WI,77.10,127.5,,,127.5,45,50,55,55.0,100,105,110,110.0,292.5
7,Hannah Hawkins,F,SBD,R-O,82.5,Raw,1999,,WI,77.30,107.5,,,107.5,45,47.5,52.5,52.5,120,-130,130,130.0,290
8,Virginia McMillan,F,SBD,R-O,82.5,Raw,2001,,WI,80.30,100,,,100.0,57.5,60,-65,60.0,112.5,120,130,130.0,290
9,Sara Erickson,F,SBD,R-O,82.5,Raw,1999,,WI,75.60,110,,,110.0,47.5,52.5,-57.5,52.5,105,110,122.5,122.5,285
10,Allison Stencil,F,SBD,R-O,82.5,Raw,2000,,WI,76.50,95,,,95.0,55,60,-62.5,60.0,117.5,130,-137.5,130.0,285
11,Katherine Donovan,F,SBD,R-O,82.5,Raw,2001,,WI,77.90,100,,,100.0,40,47.5,-50,47.5,112.5,122.5,135,135.0,282.5
12,Hannah Caron,F,SBD,R-O,82.5,Raw,2000,,WI,81.30,92.5,,,92.5,55,57.5,-60,57.5,120,-130,-130,120.0,270
13,DeAnna Leon,F,SBD,R-O,82.5,Raw,2000,,WI,80.80,105,,,105.0,45,47.5,-52.5,47.5,112.5,-125,-125,112.5,265
14,Lauren Hildebrandt,F,SBD,R-O,82.5,Raw,2001,,WI,81.00,97.5,,,97.5,42.5,47.5,-50,47.5,107.5,115,120,120.0,265
15,Faith Brooks,F,SBD,R-O,82.5,Raw,2000,,WI,80.70,102.5,,,102.5,47.5,-55,-55,47.5,102.5,112.5,-122.5,112.5,262.5
16,Paige Dvorak,F,SBD,R-O,82.5,Raw,2001,,WI,81.70,105,,,105.0,42.5,-45,-45,42.5,102.5,-112.5,115,115.0,262.5
17,Abigail Mcnitt,F,SBD,R-O,82.5,Raw,1999,,WI,81.90,95,,,95.0,42.5,47.5,-50,47.5,115,-127.5,-127.5,115.0,257.5
18,Morgan Arch,F,SBD,R-O,82.5,Raw,2002,,WI,76.90,80,,,80.0,45,52.5,57.5,57.5,102.5,110,117.5,117.5,255
19,Alicia Suzda,F,SBD,R-O,82.5,Raw,2002,Necedah Powerlifting,WI,78.20,82.5,,,82.5,32.5,35,37.5,37.5,105,115,130,130.0,250
1,Brayden Londerville,M,SBD,O,52,Single-ply,2002,Neenah Powerlifting,WI,51.60,125,135,145,145.0,55,60,-62.5,60.0,147.5,157.5,167.5,167.5,372.5
2,Dawson Fornander,M,SBD,O,52,Single-ply,2002,Necedah Powerlifting,WI,50.80,95,-100,100,100.0,47.5,-50,52.5,52.5,97.5,105,115,115.0,267.5
1,Rodolfo Serna,M,SBD,O,56,Single-ply,2000,,WI,55.50,152.5,157.5,167.5,167.5,77.5,82.5,-87.5,82.5,170,177.5,-185,177.5,427.5
2,Thomas Schell,M,SBD,O,56,Single-ply,2001,,WI,55.30,140,145,150,150.0,75,82.5,-85,82.5,-142.5,152.5,157.5,157.5,390
3,Lex Frahm,M,SBD,O,56,Single-ply,2002,Neenah Powerlifting,WI,52.40,107.5,-115,-115,107.5,57.5,62.5,-67.5,62.5,122.5,130,135,135.0,305
1,Nicholas Johnson #1,M,SBD,O,60,Single-ply,2001,Neenah Powerlifting,WI,58.30,150,160,167.5,167.5,65,70,72.5,72.5,165,175,177.5,177.5,417.5
2,Xavier Ollarzabal,M,SBD,O,60,Single-ply,2000,,WI,58.70,132.5,140,147.5,147.5,67.5,75,-77.5,75.0,147.5,160,-170,160.0,382.5
3,Justin Rife,M,SBD,O,60,Single-ply,2000,,WI,58.70,127.5,142.5,-147.5,142.5,62.5,67.5,-72.5,67.5,152.5,160,167.5,167.5,377.5
4,Logan Ladwig,M,SBD,O,60,Single-ply,2001,Necedah Powerlifting,WI,59.10,137.5,152.5,-155,152.5,60,62.5,67.5,67.5,145,-157.5,-170,145.0,365
5,William Breunig,M,SBD,O,60,Single-ply,2002,,WI,59.90,115,-125,-125,115.0,70,72.5,77.5,77.5,142.5,152.5,155,155.0,347.5
1,Mitchell Gibson,M,SBD,O,75,Single-ply,1999,,WI,71.90,255,267.5,-277.5,267.5,105,110,112.5,112.5,245,255,-262.5,255.0,635
2,Dawson Stroik,M,SBD,O,75,Single-ply,2001,,WI,72.30,-240,240,255,255.0,105,112.5,-120,112.5,220,230,240,240.0,607.5
3,Nathaniel Ramsey,M,SBD,O,75,Single-ply,2000,,WI,72.10,195,205,215,215.0,85,92.5,-95,92.5,205,217.5,227.5,227.5,535
DQ,Evan Haugen,M,SBD,O,75,Single-ply,2001,,WI,70.50,-180,-180,-180,,-95,97.5,-105,97.5,-192.5,-192.5,-192.5,,
1,Shane Kierstyn,M,SBD,O,90,Single-ply,2001,,WI,89.00,235,245,-255,245.0,117.5,125,-130,125.0,255,267.5,-285,267.5,637.5
2,Samuel Nelson,M,SBD,O,90,Single-ply,2000,,WI,85.60,232.5,242.5,250,250.0,117.5,122.5,-125,122.5,227.5,237.5,250,250.0,622.5
3,Zachary Tesch,M,SBD,O,90,Single-ply,2000,,WI,88.50,245,-260,-260,245.0,120,-125,-125,120.0,217.5,230,-235,230.0,595
4,Austin Payne,M,SBD,O,90,Single-ply,2000,,WI,88.70,-222.5,222.5,-245,222.5,102.5,105,107.5,107.5,245,255,-270,255.0,585
5,Devoni Albritton,M,SBD,O,90,Single-ply,2001,,WI,87.30,217.5,227.5,-237.5,227.5,97.5,105,-110,105.0,230,245,250,250.0,582.5
6,Joshua Edwards,M,SBD,O,90,Single-ply,1972,,WI,84.30,227.5,240,-250,240.0,102.5,107.5,112.5,112.5,215,227.5,-235,227.5,580
7,Nicholas Purcell,M,SBD,O,90,Single-ply,2001,,WI,89.20,210,222.5,232.5,232.5,92.5,97.5,102.5,102.5,212.5,227.5,235,235.0,570
8,Case Riehl,M,SBD,O,90,Single-ply,2000,,WI,85.50,-205,222.5,242.5,242.5,97.5,107.5,112.5,112.5,200,205,207.5,207.5,562.5
DQ,Seth Polaski,M,SBD,O,90,Single-ply,2001,,WI,90.00,220,230,237.5,237.5,125,130,-132.5,130.0,-225,-225,-225,,
1,Hunter Burlingame,M,SBD,O,100,Single-ply,2000,,WI,92.30,247.5,265,-267.5,265.0,112.5,122.5,-127.5,122.5,237.5,247.5,255,255.0,642.5
2,Dylan Wysocky,M,SBD,O,100,Single-ply,2001,,WI,92.00,205,215,227.5,227.5,102.5,105,107.5,107.5,215,225,235,235.0,570
3,Marcos Chavez Jr,M,SBD,O,100,Single-ply,1999,,WI,98.60,207.5,-215,217.5,217.5,102.5,105,107.5,107.5,222.5,235,242.5,242.5,567.5
4,Blake Moseley,M,SBD,O,100,Single-ply,2001,,WI,99.40,220,-225,-225,220.0,97.5,102.5,105,105.0,210,220,-240,220.0,545
1,Michael Young,M,SBD,O,110,Single-ply,2000,Rebel Powerlifting,WI,107.70,222.5,230,237.5,237.5,105,112.5,117.5,117.5,230,245,255,255.0,610
2,Dylan Burkwalt,M,SBD,O,110,Single-ply,2001,,WI,102.70,227.5,-245,245,245.0,92.5,97.5,102.5,102.5,227.5,247.5,-262.5,247.5,595
1,Owen Rozumalski,M,SBD,O,125,Single-ply,2000,,WI,117.00,260,270,280,280.0,147.5,152.5,-157.5,152.5,225,232.5,237.5,237.5,670
2,Zachery Schaeve,M,SBD,O,125,Single-ply,1999,,WI,116.50,235,250,260,260.0,107.5,112.5,117.5,117.5,230,240,247.5,247.5,625
3,Nicholas Coca,M,SBD,O,125,Single-ply,2000,,WI,117.90,242.5,250,257.5,257.5,117.5,122.5,127.5,127.5,230,240,-245,240.0,625
4,Alex Ochs,M,SBD,O,125,Single-ply,2001,Waterford Union High School,WI,116.10,222.5,232.5,242.5,242.5,125,132.5,137.5,137.5,215,-222.5,-222.5,215.0,595
5,Jaden Finley,M,SBD,O,125,Single-ply,2001,,WI,118.20,200,-212.5,212.5,212.5,107.5,112.5,117.5,117.5,207.5,217.5,227.5,227.5,557.5
6,Dalton Gautsch,M,SBD,O,125,Single-ply,2000,,WI,114.10,205,210,217.5,217.5,92.5,95,97.5,97.5,-222.5,222.5,-242.5,222.5,537.5
1,Niko Iglesias,M,SBD,O,125+,Single-ply,2000,,WI,157.30,250,272.5,277.5,277.5,145,152.5,-160,152.5,250,255,257.5,257.5,687.5
2,Oscalito Arroyo,M,SBD,O,125+,Single-ply,1999,,WI,149.30,310,332.5,-340,332.5,132.5,-140,-140,132.5,-210,210,-225,210.0,675
3,Spencer Herrick,M,SBD,O,125+,Single-ply,2000,,WI,137.10,237.5,252.5,272.5,272.5,105,110,115,115.0,227.5,-240,240,240.0,627.5
4,Nicholas Nemetz,M,SBD,O,125+,Single-ply,2000,,WI,138.10,205,217.5,-230,217.5,102.5,110,115,115.0,230,-240,-240,230.0,562.5
1,Peter Piparo,M,SBD,O,67.5,Single-ply,2000,,WI,65.70,200,-205,-205,200.0,75,80,85,85.0,200,-207.5,207.5,207.5,492.5
2,Miles Priefer,M,SBD,O,67.5,Single-ply,1999,Waterford Union High School,WI,64.80,187.5,200,207.5,207.5,92.5,97.5,102.5,102.5,162.5,175,-182.5,175.0,485
3,Jaymin Paquin,M,SBD,O,67.5,Single-ply,2000,,WI,65.50,162.5,172.5,185,185.0,87.5,-95,95,95.0,182.5,-192.5,192.5,192.5,472.5
4,Cody Broeckel,M,SBD,O,67.5,Single-ply,2000,,WI,65.70,177.5,187.5,-200,187.5,82.5,85,-90,85.0,175,-182.5,182.5,182.5,455
1,Noah Johnson,M,SBD,O,82.5,Single-ply,2000,,WI,81.90,267.5,280,287.5,287.5,125,132.5,135,135.0,277.5,292.5,-302.5,292.5,715
2,Sam Bassan,M,SBD,O,82.5,Single-ply,2001,,WI,81.50,260,275,-285,275.0,110,115,120,120.0,265,277.5,-287.5,277.5,672.5
3,James Schultz,M,SBD,O,82.5,Single-ply,2000,,WI,79.00,215,237.5,-250,237.5,115,130,-140,130.0,220,237.5,245,245.0,612.5
DQ,Alex Pope,M,SBD,O,82.5,Single-ply,2000,,WI,81.30,-205,-205,-212.5,,125,132.5,137.5,137.5,210,220,-230,220.0,
1,Brian Bauch,M,SBD,R-O,52,Raw,2000,Necedah Powerlifting,WI,50.70,107.5,115,-120,115.0,60,65,67.5,67.5,122.5,130,137.5,137.5,320
2,Forest Thoreson,M,SBD,R-O,52,Raw,2001,,WI,51.80,92.5,95,-100,95.0,60,65,67.5,67.5,125,137.5,-160,137.5,300
3,Lane Lee,M,SBD,R-O,52,Raw,2002,,WI,52.00,87.5,-95,95,95.0,50,52.5,55,55.0,125,-130,-130,125.0,275
4,Christian Shigouri,M,SBD,R-O,52,Raw,2000,,WI,51.20,70,80,-92.5,80.0,50,-55,55,55.0,-125,130,-135,130.0,265
5,Jacob Matoushek,M,SBD,R-O,52,Raw,2002,,WI,49.30,-70,72.5,80,80.0,50,-52.5,-52.5,50.0,97.5,105,-115,105.0,235
6,Dawson Jenkin,M,SBD,R-O,52,Raw,2001,,WI,49.90,75,-85,85,85.0,37.5,45,-50,45.0,85,102.5,-115,102.5,232.5
7,Carson Junemann,M,SBD,R-O,52,Raw,2003,,WI,51.40,67.5,77.5,-85,77.5,35,40,-47.5,40.0,85,102.5,110,110.0,227.5
8,Dylan Daly-Schreiner,M,SBD,R-O,52,Raw,2002,,WI,50.90,-62.5,62.5,-80,62.5,37.5,42.5,-45,42.5,92.5,-100,107.5,107.5,212.5
9,Alan Jimenez,M,SBD,R-O,52,Raw,2003,,WI,51.10,70,75,-80,75.0,40,-47.5,-47.5,40.0,82.5,-87.5,87.5,87.5,202.5
DQ,Justice Dilley,M,SBD,R-O,52,Raw,2002,,WI,51.50,-102.5,-112.5,-112.5,,70,-72.5,-72.5,70.0,125,-142.5,-147.5,125.0,
1,Jayson Schraufnagel,M,SBD,R-O,56,Raw,2001,Neenah Powerlifting,WI,54.90,95,105,112.5,112.5,72.5,77.5,-80,77.5,130,140,-145,140.0,330
2,Dylan Gostomski,M,SBD,R-O,56,Raw,2001,,WI,55.50,-90,90,102.5,102.5,60,70,75,75.0,110,127.5,142.5,142.5,320
3,Jack Emberson,M,SBD,R-O,56,Raw,2001,,WI,55.20,105,-110,-110,105.0,-72.5,72.5,77.5,77.5,122.5,127.5,135,135.0,317.5
4,Vaughn Zwiefelhofer,M,SBD,R-O,56,Raw,2003,,WI,55.60,90,97.5,-102.5,97.5,55,60,65,65.0,117.5,125,132.5,132.5,295
5,Elvis Cormican,M,SBD,R-O,56,Raw,2000,,WI,55.00,92.5,102.5,107.5,107.5,60,65,-67.5,65.0,115,-125,-132.5,115.0,287.5
6,Blake Burlingame,M,SBD,R-O,56,Raw,2002,,WI,56.00,90,95,-100,95.0,-57.5,-57.5,57.5,57.5,132.5,-137.5,-140,132.5,285
7,Maxwell Masog,M,SBD,R-O,56,Raw,2002,,WI,55.30,77.5,92.5,95,95.0,60,62.5,65,65.0,112.5,120,-127.5,120.0,280
8,Dylan Hanson,M,SBD,R-O,56,Raw,2001,,WI,55.30,72.5,82.5,87.5,87.5,52.5,55,57.5,57.5,112.5,117.5,120,120.0,265
9,Kendall Nigon,M,SBD,R-O,56,Raw,2001,,WI,55.00,70,75,80,80.0,-40,40,45,45.0,120,-127.5,127.5,127.5,252.5
DQ,Jack Narduzzi,M,SBD,R-O,56,Raw,2002,Waterford Union High School,WI,54.80,-110,-110,-110,,-67.5,,,,-120,,,,
1,Paul Mikolon,M,SBD,R-O,60,Raw,2000,,WI,57.90,150,-155,155,155.0,82.5,87.5,90,90.0,155,165,170,170.0,415
2,Cole Birch,M,SBD,R-O,60,Raw,1999,,WI,58.50,122.5,130,135,135.0,72.5,77.5,-80,77.5,175,180,-185,180.0,392.5
3,Sergio Jimenez,M,SBD,R-O,60,Raw,2001,,WI,59.40,-145,145,150,150.0,87.5,-90,90,90.0,140,147.5,152.5,152.5,392.5
4,Jordan Branske,M,SBD,R-O,60,Raw,2000,,WI,58.00,-127.5,137.5,-145,137.5,82.5,92.5,-97.5,92.5,142.5,157.5,-167.5,157.5,387.5
5,Alexander Gutierrez,M,SBD,R-O,60,Raw,2000,,WI,59.50,110,115,-120,115.0,67.5,-70,-70,67.5,157.5,162.5,167.5,167.5,350
6,Enrique Almaguer,M,SBD,R-O,60,Raw,1999,,WI,59.80,102.5,107.5,115,115.0,70,75,-77.5,75.0,132.5,142.5,160,160.0,350
7,Ike Kramschuster,M,SBD,R-O,60,Raw,1999,,WI,59.10,97.5,102.5,110,110.0,70,-75,-75,70.0,142.5,155,-165,155.0,335
8,Alex Sackett,M,SBD,R-O,60,Raw,2002,,WI,59.60,110,120,127.5,127.5,67.5,72.5,-75,72.5,125,132.5,-142.5,132.5,332.5
9,Isaac Marley,M,SBD,R-O,60,Raw,2001,,WI,59.30,-102.5,-107.5,110,110.0,62.5,65,-70,65.0,137.5,152.5,-165,152.5,327.5
10,Declan Gubrud,M,SBD,R-O,60,Raw,2001,,WI,59.10,105,112.5,115,115.0,77.5,-82.5,-82.5,77.5,-122.5,122.5,130,130.0,322.5
11,Jerric Blair,M,SBD,R-O,60,Raw,2000,,WI,58.00,107.5,110,-115,110.0,62.5,67.5,70,70.0,137.5,-145,-147.5,137.5,317.5
12,Dominic Hall,M,SBD,R-O,60,Raw,2002,,WI,56.70,-102.5,102.5,-107.5,102.5,65,70,-75,70.0,142.5,-152.5,-152.5,142.5,315
13,Bryce Ploeckelman,M,SBD,R-O,60,Raw,2002,,WI,59.60,102.5,107.5,-110,107.5,57.5,62.5,-67.5,62.5,132.5,140,-147.5,140.0,310
14,Josiah Hanson,M,SBD,R-O,60,Raw,2001,,WI,59.40,95,-102.5,-102.5,95.0,-55,55,60,60.0,120,135,147.5,147.5,302.5
15,Michael Belmont,M,SBD,R-O,60,Raw,1999,,WI,59.50,90,97.5,100,100.0,57.5,60,-65,60.0,135,142.5,-147.5,142.5,302.5
16,Mason Stangret,M,SBD,R-O,60,Raw,2001,,WI,60.00,-92.5,-92.5,92.5,92.5,72.5,77.5,-80,77.5,112.5,-122.5,122.5,122.5,292.5
1,Spencer Butke,M,SBD,R-O,75,Raw,2000,Neenah Powerlifting,WI,72.30,185,200,207.5,207.5,95,102.5,110,110.0,212.5,227.5,242.5,242.5,560
2,Logan Aleckson,M,SBD,R-O,75,Raw,1999,,WI,74.00,162.5,165,170,170.0,130,-137.5,-137.5,130.0,192.5,197.5,202.5,202.5,502.5
3,Zachary Wendt,M,SBD,R-O,75,Raw,2000,,WI,73.70,175,-190,-190,175.0,85,92.5,100,100.0,185,197.5,202.5,202.5,477.5
4,Logan Hayman,M,SBD,R-O,75,Raw,2001,,WI,73.80,155,167.5,-170,167.5,95,102.5,105,105.0,190,205,-207.5,205.0,477.5
5,Vincent Bui,M,SBD,R-O,75,Raw,2000,,WI,68.40,155,165,170,170.0,85,92.5,-102.5,92.5,175,190,212.5,212.5,475
6,Jonathan Boehnlein,M,SBD,R-O,75,Raw,2001,,WI,72.20,137.5,150,160,160.0,82.5,92.5,100,100.0,165,175,185,185.0,445
7,YuePing Vang,M,SBD,R-O,75,Raw,2000,,WI,73.10,147.5,155,-157.5,155.0,90,-95,-95,90.0,-192.5,200,-220,200.0,445
8,Coleton Strupp,M,SBD,R-O,75,Raw,2001,,WI,74.00,120,127.5,135,135.0,-97.5,102.5,107.5,107.5,175,200,-215,200.0,442.5
9,Austin Koch,M,SBD,R-O,75,Raw,2000,,WI,73.50,137.5,155,-157.5,155.0,97.5,100,-102.5,100.0,185,-195,-195,185.0,440
10,Parker Leisses,M,SBD,R-O,75,Raw,2000,,WI,71.00,135,-140,140,140.0,90,-97.5,97.5,97.5,180,190,200,200.0,437.5
11,Garrett Eddy,M,SBD,R-O,75,Raw,2001,,WI,72.90,-142.5,-142.5,152.5,152.5,102.5,107.5,110,110.0,175,-185,-200,175.0,437.5
12,Dustin Dziekan,M,SBD,R-O,75,Raw,1999,,WI,69.60,137.5,145,152.5,152.5,92.5,102.5,107.5,107.5,160,175,-182.5,175.0,435
13,Kadin Conradt,M,SBD,R-O,75,Raw,2001,,WI,70.10,-142.5,-147.5,147.5,147.5,-77.5,85,92.5,92.5,160,180,192.5,192.5,432.5
14,Nathan Penix,M,SBD,R-O,75,Raw,2001,,WI,73.30,150,162.5,-170,162.5,100,105,-107.5,105.0,165,-167.5,,165.0,432.5
15,Cole Vance,M,SBD,R-O,75,Raw,2002,,WI,70.40,-145,-145,157.5,157.5,70,85,90,90.0,165,-175,182.5,182.5,430
16,Davyn Braker,M,SBD,R-O,75,Raw,2000,,WI,74.80,-147.5,-150,150,150.0,-92.5,95,-102.5,95.0,165,172.5,182.5,182.5,427.5
17,Joel Burkert,M,SBD,R-O,75,Raw,2000,,WI,71.50,-142.5,147.5,155,155.0,82.5,-87.5,-87.5,82.5,165,175,187.5,187.5,425
18,Alex Turner,M,SBD,R-O,75,Raw,2000,,WI,71.50,-157.5,157.5,-172.5,157.5,87.5,95,-100,95.0,155,170,-175,170.0,422.5
19,Gavin Lund,M,SBD,R-O,75,Raw,2000,,WI,71.60,137.5,145,-150,145.0,87.5,92.5,-95,92.5,175,182.5,-190,182.5,420
20,Trey Zwiefelhofer,M,SBD,R-O,75,Raw,2000,,WI,72.00,127.5,135,140,140.0,85,90,-95,90.0,172.5,190,-197.5,190.0,420
21,Erik Rohloff,M,SBD,R-O,75,Raw,2001,,WI,73.10,-142.5,-142.5,142.5,142.5,75,80,85,85.0,172.5,182.5,192.5,192.5,420
22,Alix Hopfensperger,M,SBD,R-O,75,Raw,2000,,WI,74.30,127.5,-135,140,140.0,92.5,100,-105,100.0,-175,175,177.5,177.5,417.5
23,Andrew Wein,M,SBD,R-O,75,Raw,2001,,WI,73.60,137.5,142.5,150,150.0,75,80,85,85.0,165,180,-192.5,180.0,415
24,Skyler Byrne,M,SBD,R-O,75,Raw,2000,,WI,73.70,-127.5,132.5,-137.5,132.5,-97.5,97.5,-100,97.5,180,185,-190,185.0,415
25,Ethan Kaanta,M,SBD,R-O,75,Raw,2001,,WI,69.50,150,-155,155,155.0,85,-90,90,90.0,160,-167.5,-167.5,160.0,405
26,Kevin Chen,M,SBD,R-O,75,Raw,2000,,WI,73.00,125,140,-147.5,140.0,87.5,95,-97.5,95.0,152.5,170,-180,170.0,405
27,Hayden Shefchik,M,SBD,R-O,75,Raw,2000,,WI,75.00,132.5,-142.5,142.5,142.5,85,90,-95,90.0,-167.5,172.5,-182.5,172.5,405
28,Jayson Brueggeman,M,SBD,R-O,75,Raw,2001,,WI,73.20,117.5,-132.5,-145,117.5,-80,80,90,90.0,-160,172.5,-190,172.5,380
29,Kieran Connery,M,SB,R-O,75,Raw,2001,,WI,72.90,145,-152.5,-160,145.0,-75,80,-85,80.0,,,,,225
DQ,Joseph Rozivka,M,SBD,R-O,75,Raw,2000,,WI,74.20,-142.5,-160,-160,,82.5,87.5,-97.5,87.5,192.5,-210,-210,192.5,
1,Brandon Haag,M,SBD,R-O,90,Raw,1999,,WI,86.60,182.5,192.5,197.5,197.5,105,110,112.5,112.5,257.5,267.5,272.5,272.5,582.5
2,Drake Biolo,M,SBD,R-O,90,Raw,1999,,WI,87.00,210,225,-235,225.0,130,137.5,-142.5,137.5,190,210,220,220.0,582.5
3,Bryce Kasper,M,SBD,R-O,90,Raw,2000,,WI,89.00,-190,195,-205,195.0,115,122.5,125,125.0,247.5,-257.5,-257.5,247.5,567.5
4,Luke Brinkman,M,SBD,R-O,90,Raw,1999,,WI,89.30,192.5,205,210,210.0,112.5,120,-125,120.0,237.5,-247.5,-252.5,237.5,567.5
5,Kaden Ferris,M,SBD,R-O,90,Raw,1999,,WI,89.40,200,215,-227.5,215.0,107.5,112.5,117.5,117.5,205,220,-235,220.0,552.5
6,Colton Gruse,M,SBD,R-O,90,Raw,2000,,WI,86.70,182.5,200,-210,200.0,102.5,110,117.5,117.5,192.5,210,-222.5,210.0,527.5
7,Nathan Doss,M,SBD,R-O,90,Raw,1998,,WI,87.90,172.5,192.5,-200,192.5,110,117.5,127.5,127.5,162.5,172.5,197.5,197.5,517.5
8,Kaden Hansen,M,SBD,R-O,90,Raw,2001,,WI,84.20,-192.5,192.5,-200,192.5,87.5,92.5,95,95.0,-227.5,227.5,-235,227.5,515
9,Alexander Wallin,M,SBD,R-O,90,Raw,2001,,WI,87.90,175,180,185,185.0,122.5,-125,-125,122.5,185,-192.5,192.5,192.5,500
10,Sheldon Smith,M,SBD,R-O,90,Raw,2000,,WI,85.00,160,170,-177.5,170.0,105,110,115,115.0,200,210,-215,210.0,495
11,Marcus Van Domelen,M,SBD,R-O,90,Raw,1999,,WI,87.50,170,177.5,182.5,182.5,110,-115,115,115.0,177.5,192.5,-205,192.5,490
12,Travis Johnson,M,SBD,R-O,90,Raw,2000,,WI,87.20,142.5,-157.5,157.5,157.5,80,87.5,-90,87.5,227.5,242.5,-252.5,242.5,487.5
13,Ethan McKellips,M,SBD,R-O,90,Raw,2000,,WI,86.40,180,-192.5,192.5,192.5,90,102.5,-110,102.5,175,190,-200,190.0,485
14,Carter Franson,M,SBD,R-O,90,Raw,2001,,WI,83.50,137.5,152.5,-157.5,152.5,125,130,-135,130.0,182.5,192.5,200,200.0,482.5
15,Tyler Smukowski,M,SBD,R-O,90,Raw,2000,,WI,88.30,162.5,177.5,-192.5,177.5,102.5,110,-115,110.0,180,-192.5,192.5,192.5,480
16,Connor McKellips,M,SBD,R-O,90,Raw,2000,,WI,88.30,180,-192.5,-192.5,180.0,85,92.5,-102.5,92.5,175,190,202.5,202.5,475
17,Elijah Prill,M,SBD,R-O,90,Raw,2000,,WI,86.30,165,172.5,-185,172.5,87.5,92.5,-95,92.5,197.5,202.5,207.5,207.5,472.5
18,Christopher VandenHeuvel,M,SBD,R-O,90,Raw,2001,,WI,85.30,155,165,175,175.0,87.5,92.5,95,95.0,182.5,200,-215,200.0,470
19,Carlos Fairbanks,M,SBD,R-O,90,Raw,1999,,WI,89.40,150,155,-162.5,155.0,97.5,102.5,105,105.0,195,202.5,207.5,207.5,467.5
20,Sean Lemkuil,M,SBD,R-O,90,Raw,2000,,WI,88.30,167.5,175,-180,175.0,95,100,102.5,102.5,170,172.5,175,175.0,452.5
21,William Muszynski,M,SBD,R-O,90,Raw,2000,,WI,86.20,-157.5,157.5,-175,157.5,92.5,97.5,100,100.0,165,185,-190,185.0,442.5
1,James Splittgerber,M,SBD,R-O,100,Raw,1999,,WI,98.80,192.5,-202.5,205,205.0,130,140,142.5,142.5,240,-267.5,-267.5,240.0,587.5
2,Brandon Ruvalcaba,M,SBD,R-O,100,Raw,2001,,WI,96.70,205,-210,-210,205.0,125,130,-135,130.0,220,-227.5,227.5,227.5,562.5
3,Mitchell Pisinger,M,SBD,R-O,100,Raw,2000,,WI,97.10,-192.5,192.5,200,200.0,110,115,117.5,117.5,222.5,245,-255,245.0,562.5
4,Alfredo Valdez,M,SBD,R-O,100,Raw,1999,Waterford Union High School,WI,98.60,-185,185,195,195.0,102.5,110,115,115.0,230,245,-255,245.0,555
5,Caleb Cihlar,M,SBD,R-O,100,Raw,2000,,WI,98.20,200,-210,210,210.0,105,110,117.5,117.5,200,220,-235,220.0,547.5
6,Joseph Statz,M,SBD,R-O,100,Raw,2001,,WI,95.00,-185,185,215,215.0,102.5,117.5,-122.5,117.5,192.5,210,-227.5,210.0,542.5
7,Nathan Bohman,M,SBD,R-O,100,Raw,2000,,WI,98.50,-165,165,175,175.0,135,147.5,-152.5,147.5,197.5,207.5,215,215.0,537.5
8,Wyatt Carper,M,SBD,R-O,100,Raw,2000,,WI,98.20,205,-212.5,212.5,212.5,107.5,112.5,115,115.0,185,197.5,205,205.0,532.5
9,Ethan Hundt,M,SBD,R-O,100,Raw,2000,,WI,93.50,192.5,200,210,210.0,107.5,112.5,-115,112.5,185,190,195,195.0,517.5
10,Mac Strand,M,SBD,R-O,100,Raw,2002,,WI,94.00,170,180,190,190.0,82.5,87.5,92.5,92.5,182.5,205,227.5,227.5,510
11,Austin Krause,M,SBD,R-O,100,Raw,2000,,WI,96.30,170,182.5,-192.5,182.5,105,110,115,115.0,200,210,-227.5,210.0,507.5
12,Victor Statz,M,SBD,R-O,100,Raw,2000,,WI,93.50,165,-182.5,-182.5,165.0,105,110,120,120.0,185,202.5,215,215.0,500
13,Robert Conde,M,SBD,R-O,100,Raw,2002,,WI,99.10,170,-182.5,-182.5,170.0,105,-110,112.5,112.5,185,190,217.5,217.5,500
14,Benjamin Zahn,M,SBD,R-O,100,Raw,2000,,WI,91.70,157.5,162.5,170,170.0,95,100,-105,100.0,187.5,207.5,215,215.0,485
15,Alex Soto,M,SBD,R-O,100,Raw,2000,,WI,92.00,180,185,187.5,187.5,97.5,105,-107.5,105.0,185,192.5,-200,192.5,485
16,Dayshun Rhodes,M,SBD,R-O,100,Raw,2001,,WI,99.00,165,172.5,-177.5,172.5,102.5,-107.5,107.5,107.5,192.5,-207.5,-207.5,192.5,472.5
17,Erik Escalera,M,SBD,R-O,100,Raw,2001,,WI,91.20,-137.5,145,160,160.0,92.5,100,-105,100.0,192.5,205,-212.5,205.0,465
18,Todd Hall,M,SBD,R-O,100,Raw,2001,,WI,94.90,-145,145,162.5,162.5,85,92.5,95,95.0,185,195,205,205.0,462.5
19,Seth Pecha,M,SBD,R-O,100,Raw,2000,,WI,91.40,142.5,157.5,160,160.0,87.5,92.5,95,95.0,165,195,-200,195.0,450
20,Joshua Sendelbach,M,SBD,R-O,100,Raw,2000,,WI,95.60,165,-175,-175,165.0,92.5,97.5,-102.5,97.5,182.5,-190,-190,182.5,445
DQ,Justin Wefel,M,SBD,R-O,100,Raw,2001,,WI,96.60,-175,-175,-175,,95,-102.5,-102.5,95.0,-185,185,192.5,192.5,
1,Christian Stenberg,M,SBD,R-O,110,Raw,2000,,WI,103.30,220,235,240,240.0,165,172.5,-175,172.5,215,227.5,235,235.0,647.5
2,Brett Gildenzoph,M,SBD,R-O,110,Raw,1999,,WI,104.40,225,232.5,-235,232.5,137.5,-147.5,147.5,147.5,227.5,240,250,250.0,630
3,Luc Leszczynski,M,SBD,R-O,110,Raw,2000,,WI,107.70,190,207.5,215,215.0,135,147.5,-152.5,147.5,222.5,242.5,255,255.0,617.5
4,Trent Wilson,M,SBD,R-O,110,Raw,2000,,WI,108.70,220,227.5,-232.5,227.5,115,120,-125,120.0,247.5,267.5,-285,267.5,615
5,Andrew Tompkins,M,SBD,R-O,110,Raw,2000,,WI,109.40,195,215,222.5,222.5,105,112.5,115,115.0,207.5,220,227.5,227.5,565
6,Trent Zabel,M,SBD,R-O,110,Raw,1999,,WI,108.10,172.5,192.5,-200,192.5,112.5,-117.5,-117.5,112.5,222.5,-237.5,-260,222.5,527.5
7,Aaron Gotham,M,SBD,R-O,110,Raw,2001,,WI,105.90,187.5,200,210,210.0,97.5,105,112.5,112.5,187.5,195,202.5,202.5,525
8,Chandler Firary,M,SBD,R-O,110,Raw,1999,,WI,106.00,182.5,190,210,210.0,122.5,130,-135,130.0,185,-197.5,-210,185.0,525
9,Nathan Schallert,M,SBD,R-O,110,Raw,2000,,WI,105.60,167.5,-177.5,185,185.0,107.5,115,-122.5,115.0,205,212.5,-220,212.5,512.5
10,Matthew Kukacka,M,SBD,R-O,110,Raw,2000,,WI,101.20,150,157.5,162.5,162.5,82.5,90,97.5,97.5,212.5,225,237.5,237.5,497.5
11,Jackson Wemette,M,SBD,R-O,110,Raw,2001,,WI,105.10,165,172.5,-182.5,172.5,92.5,97.5,102.5,102.5,202.5,-210,-210,202.5,477.5
12,Justin Cieminski,M,SBD,R-O,110,Raw,2000,,WI,108.00,165,-172.5,-175,165.0,125,-130,130,130.0,165,172.5,-182.5,172.5,467.5
13,Michael Carroll,M,SBD,R-O,110,Raw,2000,,WI,101.80,137.5,147.5,-155,147.5,97.5,102.5,112.5,112.5,185,202.5,-220,202.5,462.5
1,Carter Welch,M,SBD,R-O,125,Raw,2000,,WI,119.40,237.5,242.5,-247.5,242.5,147.5,-152.5,-152.5,147.5,242.5,247.5,250,250.0,640
2,Jordon Prondzinski,M,SBD,R-O,125,Raw,2000,,WI,119.60,242.5,-250,250,250.0,122.5,130,-132.5,130.0,242.5,-255,-262.5,242.5,622.5
3,Andrew Bales,M,SBD,R-O,125,Raw,2000,,WI,121.80,-205,225,232.5,232.5,127.5,-147.5,-147.5,127.5,215,230,240,240.0,600
4,Michael Iverson,M,SBD,R-O,125,Raw,2001,,WI,118.40,185,195,215,215.0,-115,125,-135,125.0,220,245,-260,245.0,585
5,Michael Bidwell,M,SBD,R-O,125,Raw,2001,,WI,114.00,-182.5,200,-217.5,200.0,102.5,107.5,112.5,112.5,-227.5,247.5,270,270.0,582.5
6,Ryan Johnson,M,SBD,R-O,125,Raw,2001,,WI,121.30,195,205,-217.5,205.0,137.5,-142.5,-142.5,137.5,235,-240,-240,235.0,577.5
7,Elijah Froemming,M,SBD,R-O,125,Raw,2000,,WI,113.20,185,200,215,215.0,115,-125,-127.5,115.0,225,242.5,-260,242.5,572.5
8,Nathan LeRoy,M,SBD,R-O,125,Raw,2000,,WI,121.10,-205,205,-222.5,205.0,110,117.5,-125,117.5,202.5,215,-222.5,215.0,537.5
9,Aaron Carpenter,M,SBD,R-O,125,Raw,1999,,WI,118.90,182.5,202.5,-212.5,202.5,115,127.5,-137.5,127.5,192.5,-205,,192.5,522.5
10,William Driggett,M,SBD,R-O,125,Raw,2001,,WI,111.30,182.5,-187.5,-187.5,182.5,102.5,-107.5,-107.5,102.5,192.5,202.5,-210,202.5,487.5
11,Elijah Blohowiak,M,SBD,R-O,125,Raw,2000,,WI,122.70,-180,180,185,185.0,102.5,105,107.5,107.5,182.5,-205,-205,182.5,475
12,Noah Cork,M,SBD,R-O,125,Raw,2000,,WI,114.30,167.5,175,180,180.0,87.5,92.5,95,95.0,187.5,197.5,-207.5,197.5,472.5
13,Brandon Gilbertson,M,SBD,R-O,125,Raw,2000,,WI,121.80,165,-175,-175,165.0,-87.5,87.5,-90,87.5,210,-215,215,215.0,467.5
14,Andrew Schaal,M,SBD,R-O,125,Raw,2000,,WI,121.20,140,152.5,-160,152.5,95,100,-107.5,100.0,210,-222.5,-222.5,210.0,462.5
15,Jackson Han,M,SBD,R-O,125,Raw,2000,,WI,123.80,172.5,-177.5,185,185.0,77.5,82.5,85,85.0,182.5,187.5,-192.5,187.5,457.5
16,Carter Brantner,M,SBD,R-O,125,Raw,2001,,WI,115.00,-167.5,167.5,-172.5,167.5,87.5,-92.5,-92.5,87.5,-175,175,-182.5,175.0,430
1,Logan Cleaary,M,SBD,R-O,125+,Raw,2002,,WI,152.20,255,-267.5,-267.5,255.0,162.5,175,-182.5,175.0,255,267.5,-272.5,267.5,697.5
2,Brandon Haag,M,SBD,R-O,125+,Raw,2000,,WI,148.60,230,245,-255,245.0,130,135,-137.5,135.0,230,-235,-237.5,230.0,610
3,Trevor Marquardt,M,SBD,R-O,125+,Raw,2000,Neenah Powerlifting,WI,149.60,220,235,-255,235.0,117.5,127.5,132.5,132.5,202.5,222.5,-245,222.5,590
4,Kevin Karras,M,SBD,R-O,125+,Raw,1999,,WI,139.60,-185,190,210,210.0,125,135,-140,135.0,202.5,225,240,240.0,585
5,Benjamin Hoitink,M,SBD,R-O,125+,Raw,2000,,WI,150.20,160,,,160.0,180,190,-195,190.0,185,215,-240,215.0,565
6,Ryan Blokhuis,M,SBD,R-O,125+,Raw,2001,,WI,137.30,175,185,-190,185.0,100,-110,110,110.0,192.5,210,220,220.0,515
7,Timothy Rothbauer,M,SBD,R-O,125+,Raw,2000,,WI,140.80,185,197.5,207.5,207.5,110,112.5,-115,112.5,195,-215,-217.5,195.0,515
8,Nicholas Snellenberger,M,SBD,R-O,125+,Raw,2000,,WI,136.70,-197.5,-197.5,197.5,197.5,90,102.5,110,110.0,182.5,205,-227.5,205.0,512.5
9,Benjamin Stoner,M,SBD,R-O,125+,Raw,2001,,WI,151.20,177.5,182.5,190,190.0,117.5,-122.5,-122.5,117.5,205,-210,,205.0,512.5
10,Jordon Sanchez,M,SBD,R-O,125+,Raw,2001,,WI,144.00,182.5,197.5,207.5,207.5,92.5,102.5,115,115.0,165,-177.5,-177.5,165.0,487.5
11,Evan Derrick,M,SBD,R-O,125+,Raw,2000,,WI,151.50,180,187.5,-192.5,187.5,95,100,105,105.0,187.5,-197.5,-197.5,187.5,480
12,Andrew Burkart,M,SBD,R-O,125+,Raw,2000,,WI,133.00,-167.5,-167.5,167.5,167.5,102.5,107.5,-115,107.5,192.5,197.5,-202.5,197.5,472.5
13,Alec Morris,M,SBD,R-O,125+,Raw,2000,,WI,132.10,147.5,-152.5,152.5,152.5,102.5,105,-107.5,105.0,192.5,205,210,210.0,467.5
14,Ryan Williams #4,M,SBD,R-O,125+,Raw,2000,,WI,140.90,160,170,-177.5,170.0,67.5,77.5,-85,77.5,205,-212.5,-212.5,205.0,452.5
DQ,Trevor Pye,M,SBD,R-O,125+,Raw,2001,Waterford Union High School,WI,129.90,210,220,230,230.0,105,107.5,110,110.0,-197.5,-197.5,-207.5,,
DQ,Jake Francisco,M,SBD,R-O,125+,Raw,2000,Waterford Union High School,WI,136.20,147.5,152.5,-162.5,152.5,-95,95,97.5,97.5,-212.5,-212.5,-212.5,,
1,Lucas Ebratt,M,SBD,R-O,67.5,Raw,2000,,WI,66.10,-155,-165,165,165.0,115,122.5,-125,122.5,180,187.5,197.5,197.5,485
2,Quincy Decorah,M,SBD,R-O,67.5,Raw,2001,,WI,66.10,-170,-170,170,170.0,95,97.5,-100,97.5,182.5,197.5,-220,197.5,465
3,Jonas Kasten,M,SBD,R-O,67.5,Raw,2000,Neenah Powerlifting,WI,62.50,132.5,145,155,155.0,90,97.5,102.5,102.5,180,192.5,200,200.0,457.5
4,Moises Medina,M,SBD,R-O,67.5,Raw,2002,,WI,66.80,152.5,160,167.5,167.5,97.5,102.5,-107.5,102.5,167.5,177.5,-190,177.5,447.5
5,Colton Steyer,M,SBD,R-O,67.5,Raw,2001,,WI,66.90,-155,155,-170,155.0,110,117.5,-125,117.5,157.5,-172.5,172.5,172.5,445
6,Brice Mcclay,M,SBD,R-O,67.5,Raw,1999,,WI,64.70,130,137.5,-142.5,137.5,80,85,87.5,87.5,185,192.5,-210,192.5,417.5
7,Jonas Kohls,M,SBD,R-O,67.5,Raw,1999,,WI,66.50,120,135,-142.5,135.0,77.5,82.5,-87.5,82.5,175,185,-190,185.0,402.5
8,Ethan Hahlbeck,M,SBD,R-O,67.5,Raw,2002,,WI,66.90,147.5,-152.5,155,155.0,75,77.5,82.5,82.5,142.5,152.5,165,165.0,402.5
9,Briar Kjos,M,SBD,R-O,67.5,Raw,1999,,WI,67.40,-140,140,155,155.0,75,82.5,-85,82.5,155,162.5,-170,162.5,400
10,Jackson Jaeger,M,SBD,R-O,67.5,Raw,2001,,WI,64.50,-145,-145,145,145.0,82.5,85,87.5,87.5,150,165,-177.5,165.0,397.5
11,Cooper Kastenschmidt,M,SBD,R-O,67.5,Raw,2001,,WI,64.80,137.5,-145,145,145.0,67.5,72.5,-77.5,72.5,150,165,172.5,172.5,390
12,Jake Campbell,M,SBD,R-O,67.5,Raw,2000,,WI,66.40,122.5,-137.5,-137.5,122.5,82.5,-92.5,-92.5,82.5,150,175,182.5,182.5,387.5
13,Jack Bond,M,SBD,R-O,67.5,Raw,2001,,WI,65.00,115,120,127.5,127.5,85,90,-92.5,90.0,142.5,152.5,167.5,167.5,385
14,Kolton Fiedler,M,SBD,R-O,67.5,Raw,1999,,WI,65.00,115,127.5,-135,127.5,72.5,82.5,-85,82.5,162.5,175,-185,175.0,385
15,Logan Zyduck,M,SBD,R-O,67.5,Raw,2002,,WI,65.50,122.5,132.5,142.5,142.5,70,80,-85,80.0,142.5,155,160,160.0,382.5
16,Devin Lang,M,SBD,R-O,67.5,Raw,2001,,WI,65.10,120,125,-130,125.0,70,72.5,75,75.0,165,175,180,180.0,380
17,Nathaniel Greenlaw,M,SBD,R-O,67.5,Raw,2001,,WI,67.00,127.5,132.5,-142.5,132.5,65,70,72.5,72.5,170,-177.5,-177.5,170.0,375
18,Damen Salzman,M,SBD,R-O,67.5,Raw,2000,,WI,64.80,125,-135,-137.5,125.0,-70,72.5,-77.5,72.5,167.5,172.5,175,175.0,372.5
19,Alex Myszewski,M,SBD,R-O,67.5,Raw,2002,,WI,63.80,102.5,115,127.5,127.5,62.5,70,-77.5,70.0,150,167.5,-182.5,167.5,365
DQ,Zsombor Debreczeny,M,SBD,R-O,67.5,Raw,2000,,WI,66.60,102.5,-107.5,-107.5,102.5,75,80,82.5,82.5,-167.5,-167.5,-167.5,,
1,Nicholas Grewe,M,SBD,R-O,82.5,Raw,2000,,WI,82.00,-182.5,182.5,192.5,192.5,112.5,120,125,125.0,192.5,212.5,227.5,227.5,545
2,Justin Choy,M,SBD,R-O,82.5,Raw,1999,,WI,75.30,192.5,202.5,207.5,207.5,107.5,-115,115,115.0,-210,210,220,220.0,542.5
3,Michael Fritz,M,SBD,R-O,82.5,Raw,2001,,WI,79.40,-155,167.5,175,175.0,117.5,-125,130,130.0,200,212.5,-217.5,212.5,517.5
4,Connor Mahlum,M,SBD,R-O,82.5,Raw,1999,,WI,81.30,160,167.5,177.5,177.5,90,95,100,100.0,202.5,210,220,220.0,497.5
5,Isaac Premus,M,SBD,R-O,82.5,Raw,2000,,WI,81.30,157.5,170,175,175.0,90,100,-105,100.0,195,215,222.5,222.5,497.5
6,Tanner Carver,M,SBD,R-O,82.5,Raw,2000,,WI,82.10,162.5,172.5,177.5,177.5,97.5,-100,-100,97.5,215,222.5,-227.5,222.5,497.5
7,Daniel Domenech,M,SBD,R-O,82.5,Raw,2000,,WI,82.00,-150,150,170,170.0,92.5,97.5,-100,97.5,-215,222.5,-232.5,222.5,490
8,Cormac Madigan,M,SBD,R-O,82.5,Raw,1999,,WI,78.30,-170,170,175,175.0,112.5,-117.5,-117.5,112.5,185,195,-205,195.0,482.5
9,Thomas Van Eperen,M,SBD,R-O,82.5,Raw,2001,,WI,79.40,155,-165,170,170.0,90,95,-97.5,95.0,182.5,200,210,210.0,475
10,Jason Walls,M,SBD,R-O,82.5,Raw,2000,,WI,79.00,-152.5,152.5,175,175.0,102.5,110,-117.5,110.0,160,170,185,185.0,470
11,Nolan Young,M,SBD,R-O,82.5,Raw,2001,,WI,80.80,160,-167.5,-167.5,160.0,120,127.5,-132.5,127.5,182.5,-187.5,-187.5,182.5,470
12,Kadin Dilley,M,SBD,R-O,82.5,Raw,2000,,WI,81.50,145,155,-160,155.0,97.5,100,-102.5,100.0,190,215,-225,215.0,470
13,Jacob Kundert,M,SBD,R-O,82.5,Raw,1999,,WI,80.00,142.5,152.5,155,155.0,95,100,-105,100.0,185,200,210,210.0,465
14,Isaiah Simon,M,SBD,R-O,82.5,Raw,1999,,WI,80.60,155,167.5,-172.5,167.5,85,90,92.5,92.5,192.5,202.5,-220,202.5,462.5
15,Aric Jensen,M,SBD,R-O,82.5,Raw,1999,,WI,79.80,162.5,-170,-170,162.5,107.5,-110,-110,107.5,177.5,185,-197.5,185.0,455
16,Logan Clark,M,SBD,R-O,82.5,Raw,2000,,WI,80.20,142.5,147.5,152.5,152.5,87.5,95,-97.5,95.0,-185,185,-197.5,185.0,432.5
DQ,Dakota Lane,M,SBD,R-O,82.5,Raw,2001,,WI,80.40,-150,-150,-150,,-97.5,97.5,100,100.0,177.5,-182.5,-182.5,177.5,
DQ,Bo Meier,M,SBD,R-O,82.5,Raw,2001,,WI,81.00,-157.5,-160,-160,,100,-107.5,-107.5,100.0,-160,,,,
DQ,Connor Simon,M,SBD,R-O,82.5,Raw,2000,,WI,81.60,165,172.5,-180,172.5,72.5,77.5,-82.5,77.5,-192.5,-197.5,-197.5,,
